#VRML V2.0 utf8
#kicad StepUp wrl exported

# Copyright (C) 2024, KiCAD
# 
# This work is licensed under the
# [Creative Commons CC-BY-SA 4.0 License](https://creativecommons.org/licenses/by-sa/4.0/legalcode),
# with the following exception:
# 
# To the extent that the creation of electronic designs that use 'Licensed Material' can be
# considered to be 'Adapted Material', then the copyright holder waives article 3 of the license
# with respect to these designs and any generated files which use data provided as part of the
# 'Licensed Material'.
# 
# You are free to use the library data in your own projects without the obligation to share your
# project files under this or any other license agreement. However, if you wish to distribute
# these libraries, or parts thereof (including in modified form) as a collection then the exception
# above does not apply. Please refer to
# https://gitlab.com/kicad/libraries/kicad-packages3D/-/blob/master/LICENSE.md for further clarification
# of the exception.
# 
# Disclaimer of Warranties and Limitation of Liability.
# These libraries are provided in the hope that they will be useful, but are provided without warranty of any kind, express or implied.
# USE 3D CAD DATA AT YOUR OWN RISK
# DO NOT RELY UPON ANY INFORMATION FOUND HERE WITHOUT INDEPENDENT VERIFICATION.
Shape {
	appearance Appearance {material DEF IC-BODY-EPOXY-04 Material {
		ambientIntensity 0.293
		diffuseColor 0.148 0.145 0.145
		specularColor 0.18 0.168 0.16
		emissiveColor 0.0 0.0 0.0
		transparency 0.0
		shininess 0.35
		}
	}
}
Shape {
	appearance Appearance {material DEF PIN-01 Material {
		ambientIntensity 0.271
		diffuseColor 0.824 0.82 0.781
		specularColor 0.328 0.258 0.172
		emissiveColor 0.0 0.0 0.0
		transparency 0.0
		shininess 0.7
		}
	}
}
Shape {
	appearance Appearance {material DEF IC-LABEL-01 Material {
		ambientIntensity 0.082
		diffuseColor 0.691 0.664 0.598
		specularColor 0.0 0.0 0.0
		emissiveColor 0.0 0.0 0.0
		transparency 0.0
		shininess 0.01
		}
	}
}
Shape { geometry IndexedFaceSet 
{ creaseAngle 0.50 coordIndex [2,1,0,-1,2,0,3,-1]
coord Coordinate { point [-0.650 0.926 0.030,0.650 0.926 0.030,0.669 0.965 0.274,-0.669 0.965 0.274]
}}
appearance Appearance{material USE IC-BODY-EPOXY-04 }
}
Shape { geometry IndexedFaceSet 
{ creaseAngle 0.50 coordIndex [7,0,1,-1,7,1,2,-1,6,2,3,-1,6,7,2,-1,5,3,4,-1,5,6,3,-1]
coord Coordinate { point [-0.650 0.926 0.030,0.650 0.926 0.030,0.729 0.847 0.030,0.729 -0.847 0.030,0.650 -0.926 0.030,-0.650 -0.926 0.030,-0.729 -0.847 0.030,-0.729 0.847 0.030]
}}
appearance Appearance{material USE IC-BODY-EPOXY-04 }
}
Shape { geometry IndexedFaceSet 
{ creaseAngle 0.50 coordIndex [2,1,0,-1,2,0,3,-1]
coord Coordinate { point [0.650 0.926 0.030,0.729 0.847 0.030,0.768 0.866 0.274,0.669 0.965 0.274]
}}
appearance Appearance{material USE IC-BODY-EPOXY-04 }
}
Shape { geometry IndexedFaceSet 
{ creaseAngle 0.50 coordIndex [2,1,0,-1,2,0,3,-1]
coord Coordinate { point [-0.669 0.965 0.274,0.669 0.965 0.274,0.669 0.965 0.356,-0.669 0.965 0.356]
}}
appearance Appearance{material USE IC-BODY-EPOXY-04 }
}
Shape { geometry IndexedFaceSet 
{ creaseAngle 0.50 coordIndex [2,1,0,-1,2,0,3,-1]
coord Coordinate { point [-0.729 0.847 0.030,-0.650 0.926 0.030,-0.669 0.965 0.274,-0.768 0.866 0.274]
}}
appearance Appearance{material USE IC-BODY-EPOXY-04 }
}
Shape { geometry IndexedFaceSet 
{ creaseAngle 0.50 coordIndex [10,0,11,-1,9,0,10,-1,8,0,9,-1,7,0,8,-1,1,6,5,-1,1,7,6,-1,1,0,7,-1,4,1,5,-1,3,1,4,-1,2,1,3,-1]
coord Coordinate { point [-0.729 -0.847 0.030,-0.729 0.847 0.030,-0.768 0.866 0.274,-0.768 0.831 0.274,-0.768 0.669 0.274,-0.768 0.331 0.274,-0.768 0.169 0.274,-0.768 -0.169 0.274,-0.768 -0.331 0.274,-0.768 -0.669 0.274,-0.768 -0.831 0.274,-0.768 -0.866 0.274]
}}
appearance Appearance{material USE IC-BODY-EPOXY-04 }
}
Shape { geometry IndexedFaceSet 
{ creaseAngle 0.50 coordIndex [10,0,11,-1,9,0,10,-1,8,0,9,-1,7,0,8,-1,1,6,5,-1,1,7,6,-1,1,0,7,-1,4,1,5,-1,3,1,4,-1,2,1,3,-1]
coord Coordinate { point [0.729 0.847 0.030,0.729 -0.847 0.030,0.768 -0.866 0.274,0.768 -0.831 0.274,0.768 -0.669 0.274,0.768 -0.331 0.274,0.768 -0.169 0.274,0.768 0.169 0.274,0.768 0.331 0.274,0.768 0.669 0.274,0.768 0.831 0.274,0.768 0.866 0.274]
}}
appearance Appearance{material USE IC-BODY-EPOXY-04 }
}
Shape { geometry IndexedFaceSet 
{ creaseAngle 0.50 coordIndex [2,1,0,-1,2,0,3,-1]
coord Coordinate { point [-0.650 -0.926 0.030,-0.729 -0.847 0.030,-0.768 -0.866 0.274,-0.669 -0.965 0.274]
}}
appearance Appearance{material USE IC-BODY-EPOXY-04 }
}
Shape { geometry IndexedFaceSet 
{ creaseAngle 0.50 coordIndex [2,1,0,-1,2,0,3,-1]
coord Coordinate { point [0.729 -0.847 0.030,0.650 -0.926 0.030,0.669 -0.965 0.274,0.768 -0.866 0.274]
}}
appearance Appearance{material USE IC-BODY-EPOXY-04 }
}
Shape { geometry IndexedFaceSet 
{ creaseAngle 0.50 coordIndex [2,1,0,-1,2,0,3,-1]
coord Coordinate { point [0.650 -0.926 0.030,-0.650 -0.926 0.030,-0.669 -0.965 0.274,0.669 -0.965 0.274]
}}
appearance Appearance{material USE IC-BODY-EPOXY-04 }
}
Shape { geometry IndexedFaceSet 
{ creaseAngle 0.50 coordIndex [2,1,0,-1,2,0,3,-1]
coord Coordinate { point [0.669 0.965 0.274,0.768 0.866 0.274,0.768 0.866 0.356,0.669 0.965 0.356]
}}
appearance Appearance{material USE IC-BODY-EPOXY-04 }
}
Shape { geometry IndexedFaceSet 
{ creaseAngle 0.50 coordIndex [8,1,0,-1,9,8,0,-1,11,9,0,-1,10,9,11,-1,7,2,1,-1,7,1,8,-1,3,7,6,-1,3,2,7,-1,4,6,5,-1,4,3,6,-1]
coord Coordinate { point [-0.768 0.866 0.356,-0.669 0.965 0.356,0.669 0.965 0.356,0.768 0.866 0.356,0.768 0.831 0.356,0.768 0.831 0.356,0.768 0.866 0.356,0.669 0.964 0.356,-0.669 0.964 0.356,-0.768 0.866 0.356,-0.768 0.831 0.356,-0.768 0.831 0.356]
}}
appearance Appearance{material USE IC-BODY-EPOXY-04 }
}
Shape { geometry IndexedFaceSet 
{ creaseAngle 0.50 coordIndex [2,1,0,-1,2,0,3,-1]
coord Coordinate { point [-0.768 0.866 0.274,-0.669 0.965 0.274,-0.669 0.965 0.356,-0.768 0.866 0.356]
}}
appearance Appearance{material USE IC-BODY-EPOXY-04 }
}
Shape { geometry IndexedFaceSet 
{ creaseAngle 0.50 coordIndex [3,0,1,-1,3,2,0,-1]
coord Coordinate { point [-0.768 -0.866 0.274,-0.768 -0.866 0.356,-0.768 -0.831 0.274,-0.768 -0.831 0.356]
}}
appearance Appearance{material USE IC-BODY-EPOXY-04 }
}
Shape { geometry IndexedFaceSet 
{ creaseAngle 0.50 coordIndex [1,0,2,-1,1,2,3,-1]
coord Coordinate { point [-0.767 -0.831 0.274,-0.768 -0.831 0.274,-0.767 -0.669 0.274,-0.768 -0.669 0.274]
}}
appearance Appearance{material USE IC-BODY-EPOXY-04 }
}
Shape { geometry IndexedFaceSet 
{ creaseAngle 0.50 coordIndex [3,0,1,-1,3,2,0,-1]
coord Coordinate { point [-0.768 -0.669 0.274,-0.768 -0.669 0.356,-0.768 -0.331 0.274,-0.768 -0.331 0.356]
}}
appearance Appearance{material USE IC-BODY-EPOXY-04 }
}
Shape { geometry IndexedFaceSet 
{ creaseAngle 0.50 coordIndex [1,0,2,-1,1,2,3,-1]
coord Coordinate { point [-0.767 -0.331 0.274,-0.768 -0.331 0.274,-0.767 -0.169 0.274,-0.768 -0.169 0.274]
}}
appearance Appearance{material USE IC-BODY-EPOXY-04 }
}
Shape { geometry IndexedFaceSet 
{ creaseAngle 0.50 coordIndex [3,0,1,-1,3,2,0,-1]
coord Coordinate { point [-0.768 -0.169 0.274,-0.768 -0.169 0.356,-0.768 0.169 0.274,-0.768 0.169 0.356]
}}
appearance Appearance{material USE IC-BODY-EPOXY-04 }
}
Shape { geometry IndexedFaceSet 
{ creaseAngle 0.50 coordIndex [1,0,2,-1,1,2,3,-1]
coord Coordinate { point [-0.767 0.169 0.274,-0.768 0.169 0.274,-0.767 0.331 0.274,-0.768 0.331 0.274]
}}
appearance Appearance{material USE IC-BODY-EPOXY-04 }
}
Shape { geometry IndexedFaceSet 
{ creaseAngle 0.50 coordIndex [3,0,1,-1,3,2,0,-1]
coord Coordinate { point [-0.768 0.331 0.274,-0.768 0.331 0.356,-0.768 0.669 0.274,-0.768 0.669 0.356]
}}
appearance Appearance{material USE IC-BODY-EPOXY-04 }
}
Shape { geometry IndexedFaceSet 
{ creaseAngle 0.50 coordIndex [1,0,2,-1,1,2,3,-1]
coord Coordinate { point [-0.767 0.669 0.274,-0.768 0.669 0.274,-0.767 0.831 0.274,-0.768 0.831 0.274]
}}
appearance Appearance{material USE IC-BODY-EPOXY-04 }
}
Shape { geometry IndexedFaceSet 
{ creaseAngle 0.50 coordIndex [3,0,1,-1,3,2,0,-1]
coord Coordinate { point [-0.768 0.831 0.274,-0.768 0.831 0.356,-0.768 0.866 0.274,-0.768 0.866 0.356]
}}
appearance Appearance{material USE IC-BODY-EPOXY-04 }
}
Shape { geometry IndexedFaceSet 
{ creaseAngle 0.50 coordIndex [3,0,1,-1,3,2,0,-1]
coord Coordinate { point [0.768 0.866 0.274,0.768 0.866 0.356,0.768 0.831 0.274,0.768 0.831 0.356]
}}
appearance Appearance{material USE IC-BODY-EPOXY-04 }
}
Shape { geometry IndexedFaceSet 
{ creaseAngle 0.50 coordIndex [1,0,2,-1,1,2,3,-1]
coord Coordinate { point [0.767 0.831 0.274,0.768 0.831 0.274,0.767 0.669 0.274,0.768 0.669 0.274]
}}
appearance Appearance{material USE IC-BODY-EPOXY-04 }
}
Shape { geometry IndexedFaceSet 
{ creaseAngle 0.50 coordIndex [3,0,1,-1,3,2,0,-1]
coord Coordinate { point [0.768 0.669 0.274,0.768 0.669 0.356,0.768 0.331 0.274,0.768 0.331 0.356]
}}
appearance Appearance{material USE IC-BODY-EPOXY-04 }
}
Shape { geometry IndexedFaceSet 
{ creaseAngle 0.50 coordIndex [1,0,2,-1,1,2,3,-1]
coord Coordinate { point [0.767 0.331 0.274,0.768 0.331 0.274,0.767 0.169 0.274,0.768 0.169 0.274]
}}
appearance Appearance{material USE IC-BODY-EPOXY-04 }
}
Shape { geometry IndexedFaceSet 
{ creaseAngle 0.50 coordIndex [3,0,1,-1,3,2,0,-1]
coord Coordinate { point [0.768 0.169 0.274,0.768 0.169 0.356,0.768 -0.169 0.274,0.768 -0.169 0.356]
}}
appearance Appearance{material USE IC-BODY-EPOXY-04 }
}
Shape { geometry IndexedFaceSet 
{ creaseAngle 0.50 coordIndex [1,0,2,-1,1,2,3,-1]
coord Coordinate { point [0.767 -0.169 0.274,0.768 -0.169 0.274,0.767 -0.331 0.274,0.768 -0.331 0.274]
}}
appearance Appearance{material USE IC-BODY-EPOXY-04 }
}
Shape { geometry IndexedFaceSet 
{ creaseAngle 0.50 coordIndex [3,0,1,-1,3,2,0,-1]
coord Coordinate { point [0.768 -0.331 0.274,0.768 -0.331 0.356,0.768 -0.669 0.274,0.768 -0.669 0.356]
}}
appearance Appearance{material USE IC-BODY-EPOXY-04 }
}
Shape { geometry IndexedFaceSet 
{ creaseAngle 0.50 coordIndex [1,0,2,-1,1,2,3,-1]
coord Coordinate { point [0.767 -0.669 0.274,0.768 -0.669 0.274,0.767 -0.831 0.274,0.768 -0.831 0.274]
}}
appearance Appearance{material USE IC-BODY-EPOXY-04 }
}
Shape { geometry IndexedFaceSet 
{ creaseAngle 0.50 coordIndex [3,0,1,-1,3,2,0,-1]
coord Coordinate { point [0.768 -0.831 0.274,0.768 -0.831 0.356,0.768 -0.866 0.274,0.768 -0.866 0.356]
}}
appearance Appearance{material USE IC-BODY-EPOXY-04 }
}
Shape { geometry IndexedFaceSet 
{ creaseAngle 0.50 coordIndex [2,1,0,-1,2,0,3,-1]
coord Coordinate { point [-0.669 -0.965 0.274,-0.768 -0.866 0.274,-0.768 -0.866 0.356,-0.669 -0.965 0.356]
}}
appearance Appearance{material USE IC-BODY-EPOXY-04 }
}
Shape { geometry IndexedFaceSet 
{ creaseAngle 0.50 coordIndex [2,1,0,-1,2,0,3,-1]
coord Coordinate { point [0.768 -0.866 0.274,0.669 -0.965 0.274,0.669 -0.965 0.356,0.768 -0.866 0.356]
}}
appearance Appearance{material USE IC-BODY-EPOXY-04 }
}
Shape { geometry IndexedFaceSet 
{ creaseAngle 0.50 coordIndex [2,1,0,-1,2,0,3,-1]
coord Coordinate { point [0.669 -0.965 0.274,-0.669 -0.965 0.274,-0.669 -0.965 0.356,0.669 -0.965 0.356]
}}
appearance Appearance{material USE IC-BODY-EPOXY-04 }
}
Shape { geometry IndexedFaceSet 
{ creaseAngle 0.50 coordIndex [4,2,1,-1,4,3,2,-1,0,4,1,-1]
coord Coordinate { point [-0.767 0.831 0.356,-0.767 0.831 0.274,-0.768 0.831 0.274,-0.768 0.831 0.356,-0.768 0.831 0.356]
}}
appearance Appearance{material USE IC-BODY-EPOXY-04 }
}
Shape { geometry IndexedFaceSet 
{ creaseAngle 0.50 coordIndex [11,1,0,-1,11,2,1,-1,3,2,11,-1,4,3,11,-1,10,6,5,-1,10,7,6,-1,10,8,7,-1,10,9,8,-1,10,4,11,-1,10,5,4,-1]
coord Coordinate { point [-0.768 -0.866 0.356,-0.768 -0.831 0.356,-0.768 -0.669 0.356,-0.768 -0.331 0.356,-0.768 -0.169 0.356,-0.768 0.169 0.356,-0.768 0.331 0.356,-0.768 0.669 0.356,-0.768 0.831 0.356,-0.768 0.866 0.356,-0.729 0.847 0.600,-0.729 -0.847 0.600]
}}
appearance Appearance{material USE IC-BODY-EPOXY-04 }
}
Shape { geometry IndexedFaceSet 
{ creaseAngle 0.50 coordIndex [2,1,0,-1,2,0,3,-1]
coord Coordinate { point [-0.768 0.866 0.356,-0.669 0.964 0.356,-0.650 0.926 0.600,-0.729 0.847 0.600]
}}
appearance Appearance{material USE IC-BODY-EPOXY-04 }
}
Shape { geometry IndexedFaceSet 
{ creaseAngle 0.50 coordIndex [2,1,0,-1,2,0,3,-1]
coord Coordinate { point [-0.669 0.964 0.356,0.669 0.964 0.356,0.650 0.926 0.600,-0.650 0.926 0.600]
}}
appearance Appearance{material USE IC-BODY-EPOXY-04 }
}
Shape { geometry IndexedFaceSet 
{ creaseAngle 0.50 coordIndex [2,1,0,-1,2,0,3,-1]
coord Coordinate { point [0.669 0.964 0.356,0.768 0.866 0.356,0.729 0.847 0.600,0.650 0.926 0.600]
}}
appearance Appearance{material USE IC-BODY-EPOXY-04 }
}
Shape { geometry IndexedFaceSet 
{ creaseAngle 0.50 coordIndex [11,1,0,-1,11,2,1,-1,3,2,11,-1,4,3,11,-1,10,6,5,-1,10,7,6,-1,10,8,7,-1,10,9,8,-1,10,4,11,-1,10,5,4,-1]
coord Coordinate { point [0.768 0.866 0.356,0.768 0.831 0.356,0.768 0.669 0.356,0.768 0.331 0.356,0.768 0.169 0.356,0.768 -0.169 0.356,0.768 -0.331 0.356,0.768 -0.669 0.356,0.768 -0.831 0.356,0.768 -0.866 0.356,0.729 -0.847 0.600,0.729 0.847 0.600]
}}
appearance Appearance{material USE IC-BODY-EPOXY-04 }
}
Shape { geometry IndexedFaceSet 
{ creaseAngle 0.50 coordIndex [4,1,2,-1,4,2,3,-1,0,1,4,-1]
coord Coordinate { point [0.767 0.831 0.356,0.767 0.831 0.274,0.768 0.831 0.274,0.768 0.831 0.356,0.768 0.831 0.356]
}}
appearance Appearance{material USE IC-BODY-EPOXY-04 }
}
Shape { geometry IndexedFaceSet 
{ creaseAngle 0.50 coordIndex [3,1,0,-1,3,2,1,-1,11,4,3,-1,11,3,0,-1,6,8,7,-1,9,8,6,-1,10,5,4,-1,10,6,5,-1,10,4,11,-1,10,9,6,-1]
coord Coordinate { point [-0.768 -0.866 0.356,-0.768 -0.831 0.356,-0.768 -0.831 0.356,-0.768 -0.866 0.356,-0.669 -0.964 0.356,0.669 -0.964 0.356,0.768 -0.866 0.356,0.768 -0.831 0.356,0.768 -0.831 0.356,0.768 -0.866 0.356,0.669 -0.965 0.356,-0.669 -0.965 0.356]
}}
appearance Appearance{material USE IC-BODY-EPOXY-04 }
}
Shape { geometry IndexedFaceSet 
{ creaseAngle 0.50 coordIndex [4,1,2,-1,4,2,3,-1,0,1,4,-1]
coord Coordinate { point [-0.767 -0.831 0.356,-0.767 -0.831 0.274,-0.768 -0.831 0.274,-0.768 -0.831 0.356,-0.768 -0.831 0.356]
}}
appearance Appearance{material USE IC-BODY-EPOXY-04 }
}
Shape { geometry IndexedFaceSet 
{ creaseAngle 0.50 coordIndex [4,2,1,-1,4,3,2,-1,0,4,1,-1]
coord Coordinate { point [-0.767 -0.669 0.356,-0.767 -0.669 0.274,-0.768 -0.669 0.274,-0.768 -0.669 0.356,-0.768 -0.669 0.356]
}}
appearance Appearance{material USE IC-BODY-EPOXY-04 }
}
Shape { geometry IndexedFaceSet 
{ creaseAngle 0.50 coordIndex [3,0,1,-1,3,1,2,-1]
coord Coordinate { point [-0.767 -0.831 0.356,-0.767 -0.669 0.356,-0.767 -0.669 0.274,-0.767 -0.831 0.274]
}}
appearance Appearance{material USE IC-BODY-EPOXY-04 }
}
Shape { geometry IndexedFaceSet 
{ creaseAngle 0.50 coordIndex [0,2,1,-1,3,2,0,-1]
coord Coordinate { point [-0.768 -0.669 0.356,-0.768 -0.331 0.356,-0.768 -0.331 0.356,-0.768 -0.669 0.356]
}}
appearance Appearance{material USE IC-BODY-EPOXY-04 }
}
Shape { geometry IndexedFaceSet 
{ creaseAngle 0.50 coordIndex [4,1,2,-1,4,2,3,-1,0,1,4,-1]
coord Coordinate { point [-0.767 -0.331 0.356,-0.767 -0.331 0.274,-0.768 -0.331 0.274,-0.768 -0.331 0.356,-0.768 -0.331 0.356]
}}
appearance Appearance{material USE IC-BODY-EPOXY-04 }
}
Shape { geometry IndexedFaceSet 
{ creaseAngle 0.50 coordIndex [4,2,1,-1,4,3,2,-1,0,4,1,-1]
coord Coordinate { point [-0.767 -0.169 0.356,-0.767 -0.169 0.274,-0.768 -0.169 0.274,-0.768 -0.169 0.356,-0.768 -0.169 0.356]
}}
appearance Appearance{material USE IC-BODY-EPOXY-04 }
}
Shape { geometry IndexedFaceSet 
{ creaseAngle 0.50 coordIndex [3,0,1,-1,3,1,2,-1]
coord Coordinate { point [-0.767 -0.331 0.356,-0.767 -0.169 0.356,-0.767 -0.169 0.274,-0.767 -0.331 0.274]
}}
appearance Appearance{material USE IC-BODY-EPOXY-04 }
}
Shape { geometry IndexedFaceSet 
{ creaseAngle 0.50 coordIndex [0,2,1,-1,3,2,0,-1]
coord Coordinate { point [-0.768 -0.169 0.356,-0.768 0.169 0.356,-0.768 0.169 0.356,-0.768 -0.169 0.356]
}}
appearance Appearance{material USE IC-BODY-EPOXY-04 }
}
Shape { geometry IndexedFaceSet 
{ creaseAngle 0.50 coordIndex [4,1,2,-1,4,2,3,-1,0,1,4,-1]
coord Coordinate { point [-0.767 0.169 0.356,-0.767 0.169 0.274,-0.768 0.169 0.274,-0.768 0.169 0.356,-0.768 0.169 0.356]
}}
appearance Appearance{material USE IC-BODY-EPOXY-04 }
}
Shape { geometry IndexedFaceSet 
{ creaseAngle 0.50 coordIndex [4,2,1,-1,4,3,2,-1,0,4,1,-1]
coord Coordinate { point [-0.767 0.331 0.356,-0.767 0.331 0.274,-0.768 0.331 0.274,-0.768 0.331 0.356,-0.768 0.331 0.356]
}}
appearance Appearance{material USE IC-BODY-EPOXY-04 }
}
Shape { geometry IndexedFaceSet 
{ creaseAngle 0.50 coordIndex [3,0,1,-1,3,1,2,-1]
coord Coordinate { point [-0.767 0.169 0.356,-0.767 0.331 0.356,-0.767 0.331 0.274,-0.767 0.169 0.274]
}}
appearance Appearance{material USE IC-BODY-EPOXY-04 }
}
Shape { geometry IndexedFaceSet 
{ creaseAngle 0.50 coordIndex [0,2,1,-1,3,2,0,-1]
coord Coordinate { point [-0.768 0.331 0.356,-0.768 0.669 0.356,-0.768 0.669 0.356,-0.768 0.331 0.356]
}}
appearance Appearance{material USE IC-BODY-EPOXY-04 }
}
Shape { geometry IndexedFaceSet 
{ creaseAngle 0.50 coordIndex [4,1,2,-1,4,2,3,-1,0,1,4,-1]
coord Coordinate { point [-0.767 0.669 0.356,-0.767 0.669 0.274,-0.768 0.669 0.274,-0.768 0.669 0.356,-0.768 0.669 0.356]
}}
appearance Appearance{material USE IC-BODY-EPOXY-04 }
}
Shape { geometry IndexedFaceSet 
{ creaseAngle 0.50 coordIndex [3,0,1,-1,3,1,2,-1]
coord Coordinate { point [-0.767 0.669 0.356,-0.767 0.831 0.356,-0.767 0.831 0.274,-0.767 0.669 0.274]
}}
appearance Appearance{material USE IC-BODY-EPOXY-04 }
}
Shape { geometry IndexedFaceSet 
{ creaseAngle 0.50 coordIndex [4,2,1,-1,4,3,2,-1,0,4,1,-1]
coord Coordinate { point [0.767 0.669 0.356,0.767 0.669 0.274,0.768 0.669 0.274,0.768 0.669 0.356,0.768 0.669 0.356]
}}
appearance Appearance{material USE IC-BODY-EPOXY-04 }
}
Shape { geometry IndexedFaceSet 
{ creaseAngle 0.50 coordIndex [3,0,1,-1,3,1,2,-1]
coord Coordinate { point [0.767 0.831 0.356,0.767 0.669 0.356,0.767 0.669 0.274,0.767 0.831 0.274]
}}
appearance Appearance{material USE IC-BODY-EPOXY-04 }
}
Shape { geometry IndexedFaceSet 
{ creaseAngle 0.50 coordIndex [2,0,1,-1,2,1,3,-1]
coord Coordinate { point [0.768 0.669 0.356,0.768 0.669 0.356,0.768 0.331 0.356,0.768 0.331 0.356]
}}
appearance Appearance{material USE IC-BODY-EPOXY-04 }
}
Shape { geometry IndexedFaceSet 
{ creaseAngle 0.50 coordIndex [4,1,2,-1,4,2,3,-1,0,1,4,-1]
coord Coordinate { point [0.767 0.331 0.356,0.767 0.331 0.274,0.768 0.331 0.274,0.768 0.331 0.356,0.768 0.331 0.356]
}}
appearance Appearance{material USE IC-BODY-EPOXY-04 }
}
Shape { geometry IndexedFaceSet 
{ creaseAngle 0.50 coordIndex [4,2,1,-1,4,3,2,-1,0,4,1,-1]
coord Coordinate { point [0.767 0.169 0.356,0.767 0.169 0.274,0.768 0.169 0.274,0.768 0.169 0.356,0.768 0.169 0.356]
}}
appearance Appearance{material USE IC-BODY-EPOXY-04 }
}
Shape { geometry IndexedFaceSet 
{ creaseAngle 0.50 coordIndex [3,0,1,-1,3,1,2,-1]
coord Coordinate { point [0.767 0.331 0.356,0.767 0.169 0.356,0.767 0.169 0.274,0.767 0.331 0.274]
}}
appearance Appearance{material USE IC-BODY-EPOXY-04 }
}
Shape { geometry IndexedFaceSet 
{ creaseAngle 0.50 coordIndex [2,0,1,-1,2,1,3,-1]
coord Coordinate { point [0.768 0.169 0.356,0.768 0.169 0.356,0.768 -0.169 0.356,0.768 -0.169 0.356]
}}
appearance Appearance{material USE IC-BODY-EPOXY-04 }
}
Shape { geometry IndexedFaceSet 
{ creaseAngle 0.50 coordIndex [4,1,2,-1,4,2,3,-1,0,1,4,-1]
coord Coordinate { point [0.767 -0.169 0.356,0.767 -0.169 0.274,0.768 -0.169 0.274,0.768 -0.169 0.356,0.768 -0.169 0.356]
}}
appearance Appearance{material USE IC-BODY-EPOXY-04 }
}
Shape { geometry IndexedFaceSet 
{ creaseAngle 0.50 coordIndex [4,2,1,-1,4,3,2,-1,0,4,1,-1]
coord Coordinate { point [0.767 -0.331 0.356,0.767 -0.331 0.274,0.768 -0.331 0.274,0.768 -0.331 0.356,0.768 -0.331 0.356]
}}
appearance Appearance{material USE IC-BODY-EPOXY-04 }
}
Shape { geometry IndexedFaceSet 
{ creaseAngle 0.50 coordIndex [3,0,1,-1,3,1,2,-1]
coord Coordinate { point [0.767 -0.169 0.356,0.767 -0.331 0.356,0.767 -0.331 0.274,0.767 -0.169 0.274]
}}
appearance Appearance{material USE IC-BODY-EPOXY-04 }
}
Shape { geometry IndexedFaceSet 
{ creaseAngle 0.50 coordIndex [2,0,1,-1,2,1,3,-1]
coord Coordinate { point [0.768 -0.331 0.356,0.768 -0.331 0.356,0.768 -0.669 0.356,0.768 -0.669 0.356]
}}
appearance Appearance{material USE IC-BODY-EPOXY-04 }
}
Shape { geometry IndexedFaceSet 
{ creaseAngle 0.50 coordIndex [4,1,2,-1,4,2,3,-1,0,1,4,-1]
coord Coordinate { point [0.767 -0.669 0.356,0.767 -0.669 0.274,0.768 -0.669 0.274,0.768 -0.669 0.356,0.768 -0.669 0.356]
}}
appearance Appearance{material USE IC-BODY-EPOXY-04 }
}
Shape { geometry IndexedFaceSet 
{ creaseAngle 0.50 coordIndex [4,2,1,-1,4,3,2,-1,0,4,1,-1]
coord Coordinate { point [0.767 -0.831 0.356,0.767 -0.831 0.274,0.768 -0.831 0.274,0.768 -0.831 0.356,0.768 -0.831 0.356]
}}
appearance Appearance{material USE IC-BODY-EPOXY-04 }
}
Shape { geometry IndexedFaceSet 
{ creaseAngle 0.50 coordIndex [3,0,1,-1,3,1,2,-1]
coord Coordinate { point [0.767 -0.669 0.356,0.767 -0.831 0.356,0.767 -0.831 0.274,0.767 -0.669 0.274]
}}
appearance Appearance{material USE IC-BODY-EPOXY-04 }
}
Shape { geometry IndexedFaceSet 
{ creaseAngle 0.50 coordIndex [1,0,2,-1,1,2,3,-1]
coord Coordinate { point [-0.768 0.669 0.356,-0.767 0.669 0.356,-0.768 0.831 0.356,-0.767 0.831 0.356]
}}
appearance Appearance{material USE IC-BODY-EPOXY-04 }
}
Shape { geometry IndexedFaceSet 
{ creaseAngle 0.50 coordIndex [1,0,2,-1,1,2,3,-1]
coord Coordinate { point [-0.768 -0.831 0.356,-0.767 -0.831 0.356,-0.768 -0.669 0.356,-0.767 -0.669 0.356]
}}
appearance Appearance{material USE IC-BODY-EPOXY-04 }
}
Shape { geometry IndexedFaceSet 
{ creaseAngle 0.50 coordIndex [1,0,2,-1,1,2,3,-1]
coord Coordinate { point [-0.768 -0.331 0.356,-0.767 -0.331 0.356,-0.768 -0.169 0.356,-0.767 -0.169 0.356]
}}
appearance Appearance{material USE IC-BODY-EPOXY-04 }
}
Shape { geometry IndexedFaceSet 
{ creaseAngle 0.50 coordIndex [1,0,2,-1,1,2,3,-1]
coord Coordinate { point [-0.768 0.169 0.356,-0.767 0.169 0.356,-0.768 0.331 0.356,-0.767 0.331 0.356]
}}
appearance Appearance{material USE IC-BODY-EPOXY-04 }
}
Shape { geometry IndexedFaceSet 
{ creaseAngle 0.50 coordIndex [16,2,15,-1,14,15,2,-1,17,2,16,-1,13,14,2,-1,18,0,2,-1,18,2,17,-1,19,0,18,-1,20,0,19,-1,21,0,20,-1,22,0,21,-1,3,9,10,-1,3,10,11,-1,3,11,12,-1,3,12,13,-1,3,13,2,-1,8,9,3,-1,23,0,22,-1,34,8,3,-1,33,34,3,-1,4,33,3,-1,1,23,24,-1,1,24,25,-1,1,25,26,-1,1,26,27,-1,1,27,28,-1,1,28,29,-1,1,29,30,-1,1,0,23,-1,7,30,31,-1,7,1,30,-1,5,33,4,-1,6,33,5,-1,6,31,32,-1,6,32,33,-1,6,7,31,-1]
coord Coordinate { point [-0.650 0.926 0.600,0.650 0.926 0.600,-0.729 0.847 0.600,-0.729 -0.847 0.600,-0.650 -0.926 0.600,0.650 -0.926 0.600,0.729 -0.847 0.600,0.729 0.847 0.600,-0.473 0.552 0.600,-0.500 0.555 0.600,-0.526 0.564 0.600,-0.549 0.579 0.600,-0.568 0.599 0.600,-0.581 0.623 0.600,-0.589 0.649 0.600,-0.591 0.677 0.600,-0.586 0.704 0.600,-0.575 0.729 0.600,-0.559 0.751 0.600,-0.538 0.768 0.600,-0.513 0.781 0.600,-0.487 0.787 0.600,-0.459 0.787 0.600,-0.433 0.781 0.600,-0.408 0.768 0.600,-0.387 0.751 0.600,-0.371 0.729 0.600,-0.360 0.704 0.600,-0.355 0.677 0.600,-0.357 0.649 0.600,-0.365 0.623 0.600,-0.378 0.599 0.600,-0.397 0.579 0.600,-0.420 0.564 0.600,-0.446 0.555 0.600]
}}
appearance Appearance{material USE IC-BODY-EPOXY-04 }
}
Shape { geometry IndexedFaceSet 
{ creaseAngle 0.50 coordIndex [2,1,0,-1,2,0,3,-1]
coord Coordinate { point [-0.669 -0.964 0.356,-0.768 -0.866 0.356,-0.729 -0.847 0.600,-0.650 -0.926 0.600]
}}
appearance Appearance{material USE IC-BODY-EPOXY-04 }
}
Shape { geometry IndexedFaceSet 
{ creaseAngle 0.50 coordIndex [1,0,2,-1,1,2,3,-1]
coord Coordinate { point [0.768 0.831 0.356,0.767 0.831 0.356,0.768 0.669 0.356,0.767 0.669 0.356]
}}
appearance Appearance{material USE IC-BODY-EPOXY-04 }
}
Shape { geometry IndexedFaceSet 
{ creaseAngle 0.50 coordIndex [0,2,3,-1,1,0,3,-1]
coord Coordinate { point [0.768 0.331 0.356,0.767 0.331 0.356,0.768 0.169 0.356,0.767 0.169 0.356]
}}
appearance Appearance{material USE IC-BODY-EPOXY-04 }
}
Shape { geometry IndexedFaceSet 
{ creaseAngle 0.50 coordIndex [0,2,3,-1,1,0,3,-1]
coord Coordinate { point [0.768 -0.169 0.356,0.767 -0.169 0.356,0.768 -0.331 0.356,0.767 -0.331 0.356]
}}
appearance Appearance{material USE IC-BODY-EPOXY-04 }
}
Shape { geometry IndexedFaceSet 
{ creaseAngle 0.50 coordIndex [1,0,2,-1,1,2,3,-1]
coord Coordinate { point [0.768 -0.669 0.356,0.767 -0.669 0.356,0.768 -0.831 0.356,0.767 -0.831 0.356]
}}
appearance Appearance{material USE IC-BODY-EPOXY-04 }
}
Shape { geometry IndexedFaceSet 
{ creaseAngle 0.50 coordIndex [2,1,0,-1,2,0,3,-1]
coord Coordinate { point [0.768 -0.866 0.356,0.669 -0.964 0.356,0.650 -0.926 0.600,0.729 -0.847 0.600]
}}
appearance Appearance{material USE IC-BODY-EPOXY-04 }
}
Shape { geometry IndexedFaceSet 
{ creaseAngle 0.50 coordIndex [2,1,0,-1,2,0,3,-1]
coord Coordinate { point [0.669 -0.964 0.356,-0.669 -0.964 0.356,-0.650 -0.926 0.600,0.650 -0.926 0.600]
}}
appearance Appearance{material USE IC-BODY-EPOXY-04 }
}
Shape { geometry IndexedFaceSet 
{ creaseAngle 0.50 coordIndex [30,1,0,-1,30,0,29,-1,31,2,1,-1,31,1,30,-1,32,3,2,-1,32,2,31,-1,33,4,3,-1,33,3,32,-1,34,5,4,-1,34,4,33,-1,35,6,5,-1,35,5,34,-1,36,7,6,-1,36,6,35,-1,37,8,7,-1,37,7,36,-1,38,9,8,-1,38,8,37,-1,39,10,9,-1,39,9,38,-1,40,10,39,-1,40,11,10,-1,41,11,40,-1,41,12,11,-1,42,13,12,-1,42,12,41,-1,43,14,13,-1,43,13,42,-1,44,15,14,-1,44,16,15,-1,44,14,43,-1,45,17,16,-1,45,16,44,-1,46,17,45,-1,47,18,17,-1,47,19,18,-1,47,17,46,-1,48,19,47,-1,49,20,19,-1,49,19,48,-1,50,21,20,-1,50,20,49,-1,51,22,21,-1,51,23,22,-1,51,21,50,-1,52,23,51,-1,53,24,23,-1,53,23,52,-1,54,25,24,-1,54,24,53,-1,55,26,25,-1,55,27,26,-1,55,25,54,-1,28,27,55,-1]
coord Coordinate { point [-0.473 0.552 0.600,-0.500 0.555 0.600,-0.526 0.564 0.600,-0.549 0.579 0.600,-0.568 0.599 0.600,-0.581 0.623 0.600,-0.589 0.649 0.600,-0.591 0.677 0.600,-0.586 0.704 0.600,-0.575 0.729 0.600,-0.559 0.751 0.600,-0.538 0.768 0.600,-0.513 0.781 0.600,-0.487 0.787 0.600,-0.459 0.787 0.600,-0.433 0.781 0.600,-0.408 0.768 0.600,-0.387 0.751 0.600,-0.371 0.729 0.600,-0.360 0.704 0.600,-0.355 0.677 0.600,-0.357 0.649 0.600,-0.365 0.623 0.600,-0.378 0.599 0.600,-0.397 0.579 0.600,-0.420 0.564 0.600,-0.446 0.555 0.600,-0.473 0.552 0.600,-0.473 0.552 0.581,-0.473 0.552 0.581,-0.500 0.555 0.581,-0.526 0.564 0.581,-0.549 0.579 0.581,-0.568 0.599 0.581,-0.581 0.623 0.581,-0.589 0.649 0.581,-0.591 0.677 0.581,-0.586 0.704 0.581,-0.575 0.729 0.581,-0.559 0.751 0.581,-0.538 0.768 0.581,-0.513 0.781 0.581,-0.487 0.787 0.581,-0.459 0.787 0.581,-0.433 0.781 0.581,-0.408 0.768 0.581,-0.387 0.751 0.581,-0.371 0.729 0.581,-0.360 0.704 0.581,-0.355 0.677 0.581,-0.357 0.649 0.581,-0.365 0.623 0.581,-0.378 0.599 0.581,-0.397 0.579 0.581,-0.420 0.564 0.581,-0.446 0.555 0.581]
}}
appearance Appearance{material USE IC-BODY-EPOXY-04 }
}
Shape { geometry IndexedFaceSet 
{ creaseAngle 0.50 coordIndex [3,1,0,-1,3,2,1,-1,3,5,4,-1,3,6,5,-1,3,7,6,-1,3,8,7,-1,3,9,8,-1,3,10,9,-1,3,11,10,-1,3,12,11,-1,3,13,12,-1,3,14,13,-1,3,15,14,-1,3,16,15,-1,3,17,16,-1,3,18,17,-1,3,19,18,-1,3,20,19,-1,3,21,20,-1,3,22,21,-1,3,23,22,-1,3,24,23,-1,3,25,24,-1,3,26,25,-1,3,0,26,-1]
coord Coordinate { point [-0.473 0.552 0.581,-0.500 0.555 0.581,-0.526 0.564 0.581,-0.549 0.579 0.581,-0.568 0.599 0.581,-0.581 0.623 0.581,-0.589 0.649 0.581,-0.591 0.677 0.581,-0.586 0.704 0.581,-0.575 0.729 0.581,-0.559 0.751 0.581,-0.538 0.768 0.581,-0.513 0.781 0.581,-0.487 0.787 0.581,-0.459 0.787 0.581,-0.433 0.781 0.581,-0.408 0.768 0.581,-0.387 0.751 0.581,-0.371 0.729 0.581,-0.360 0.704 0.581,-0.355 0.677 0.581,-0.357 0.649 0.581,-0.365 0.623 0.581,-0.378 0.599 0.581,-0.397 0.579 0.581,-0.420 0.564 0.581,-0.446 0.555 0.581]
}}
appearance Appearance{material USE IC-BODY-EPOXY-04 }
}
Shape { geometry IndexedFaceSet 
{ creaseAngle 0.50 coordIndex [1,2,0,-1,1,3,2,-1]
coord Coordinate { point [-0.474 0.750 0.000,-0.474 0.750 0.030,0.474 0.750 0.000,0.474 0.750 0.030]
}}
appearance Appearance{material USE PIN-01 }
}
Shape { geometry IndexedFaceSet 
{ creaseAngle 0.50 coordIndex [1,0,2,-1,1,2,3,-1]
coord Coordinate { point [-0.474 -0.750 0.000,-0.474 -0.750 0.030,0.474 -0.750 0.000,0.474 -0.750 0.030]
}}
appearance Appearance{material USE PIN-01 }
}
Shape { geometry IndexedFaceSet 
{ creaseAngle 0.50 coordIndex [3,0,1,-1,3,2,0,-1]
coord Coordinate { point [-0.474 0.750 0.000,-0.474 -0.750 0.000,-0.474 0.750 0.030,-0.474 -0.750 0.030]
}}
appearance Appearance{material USE PIN-01 }
}
Shape { geometry IndexedFaceSet 
{ creaseAngle 0.50 coordIndex [3,1,0,-1,3,0,2,-1]
coord Coordinate { point [0.474 0.750 0.000,0.474 -0.750 0.000,0.474 0.750 0.030,0.474 -0.750 0.030]
}}
appearance Appearance{material USE PIN-01 }
}
Shape { geometry IndexedFaceSet 
{ creaseAngle 0.50 coordIndex [3,0,1,-1,3,2,0,-1]
coord Coordinate { point [-0.474 0.750 0.000,0.474 0.750 0.000,-0.474 -0.750 0.000,0.474 -0.750 0.000]
}}
appearance Appearance{material USE PIN-01 }
}
Shape { geometry IndexedFaceSet 
{ creaseAngle 0.50 coordIndex [3,1,0,-1,3,0,2,-1]
coord Coordinate { point [-0.474 0.750 0.030,0.474 0.750 0.030,-0.474 -0.750 0.030,0.474 -0.750 0.030]
}}
appearance Appearance{material USE PIN-01 }
}
Shape { geometry IndexedFaceSet 
{ creaseAngle 0.50 coordIndex [3,1,0,-1,3,2,1,-1]
coord Coordinate { point [0.767 0.831 0.274,0.767 0.669 0.274,0.886 0.669 0.274,0.886 0.831 0.274]
}}
appearance Appearance{material USE PIN-01 }
}
Shape { geometry IndexedFaceSet 
{ creaseAngle 0.50 coordIndex [6,1,0,-1,6,2,1,-1,7,3,2,-1,7,2,6,-1,5,4,3,-1,5,3,7,-1]
coord Coordinate { point [0.886 0.831 0.274,0.886 0.669 0.274,0.906 0.669 0.268,0.920 0.669 0.254,0.925 0.669 0.234,0.925 0.831 0.234,0.906 0.831 0.268,0.920 0.831 0.254]
}}
appearance Appearance{material USE PIN-01 }
}
Shape { geometry IndexedFaceSet 
{ creaseAngle 0.50 coordIndex [3,1,0,-1,3,2,1,-1]
coord Coordinate { point [0.925 0.831 0.234,0.925 0.669 0.234,0.925 0.669 0.122,0.925 0.831 0.122]
}}
appearance Appearance{material USE PIN-01 }
}
Shape { geometry IndexedFaceSet 
{ creaseAngle 0.50 coordIndex [10,1,0,-1,10,2,1,-1,11,3,2,-1,11,2,10,-1,12,4,3,-1,12,3,11,-1,13,5,4,-1,13,4,12,-1,14,6,5,-1,14,5,13,-1,15,7,6,-1,15,6,14,-1,9,8,7,-1,9,7,15,-1]
coord Coordinate { point [0.925 0.831 0.122,0.925 0.669 0.122,0.928 0.669 0.095,0.937 0.669 0.069,0.952 0.669 0.046,0.971 0.669 0.027,0.994 0.669 0.012,1.020 0.669 0.003,1.047 0.669 0.000,1.047 0.831 0.000,0.928 0.831 0.095,0.937 0.831 0.069,0.952 0.831 0.046,0.971 0.831 0.027,0.994 0.831 0.012,1.020 0.831 0.003]
}}
appearance Appearance{material USE PIN-01 }
}
Shape { geometry IndexedFaceSet 
{ creaseAngle 0.50 coordIndex [3,1,0,-1,3,2,1,-1]
coord Coordinate { point [1.047 0.831 0.000,1.047 0.669 0.000,1.181 0.669 0.000,1.181 0.831 0.000]
}}
appearance Appearance{material USE PIN-01 }
}
Shape { geometry IndexedFaceSet 
{ creaseAngle 0.50 coordIndex [3,1,0,-1,3,2,1,-1]
coord Coordinate { point [1.181 0.831 0.000,1.181 0.669 0.000,1.181 0.669 0.083,1.181 0.831 0.083]
}}
appearance Appearance{material USE PIN-01 }
}
Shape { geometry IndexedFaceSet 
{ creaseAngle 0.50 coordIndex [3,1,0,-1,3,2,1,-1]
coord Coordinate { point [1.181 0.831 0.083,1.181 0.669 0.083,1.047 0.669 0.083,1.047 0.831 0.083]
}}
appearance Appearance{material USE PIN-01 }
}
Shape { geometry IndexedFaceSet 
{ creaseAngle 0.50 coordIndex [6,1,0,-1,6,2,1,-1,7,3,2,-1,7,2,6,-1,5,4,3,-1,5,3,7,-1]
coord Coordinate { point [1.047 0.831 0.083,1.047 0.669 0.083,1.028 0.669 0.088,1.013 0.669 0.102,1.008 0.669 0.122,1.008 0.831 0.122,1.028 0.831 0.088,1.013 0.831 0.102]
}}
appearance Appearance{material USE PIN-01 }
}
Shape { geometry IndexedFaceSet 
{ creaseAngle 0.50 coordIndex [3,1,0,-1,3,2,1,-1]
coord Coordinate { point [1.008 0.831 0.122,1.008 0.669 0.122,1.008 0.669 0.234,1.008 0.831 0.234]
}}
appearance Appearance{material USE PIN-01 }
}
Shape { geometry IndexedFaceSet 
{ creaseAngle 0.50 coordIndex [10,1,0,-1,10,2,1,-1,11,3,2,-1,11,2,10,-1,12,4,3,-1,12,3,11,-1,13,5,4,-1,13,4,12,-1,14,6,5,-1,14,5,13,-1,15,7,6,-1,15,6,14,-1,9,8,7,-1,9,7,15,-1]
coord Coordinate { point [1.008 0.831 0.234,1.008 0.669 0.234,1.005 0.669 0.261,0.996 0.669 0.287,0.981 0.669 0.310,0.962 0.669 0.330,0.939 0.669 0.344,0.913 0.669 0.353,0.886 0.669 0.356,0.886 0.831 0.356,1.005 0.831 0.261,0.996 0.831 0.287,0.981 0.831 0.310,0.962 0.831 0.330,0.939 0.831 0.344,0.913 0.831 0.353]
}}
appearance Appearance{material USE PIN-01 }
}
Shape { geometry IndexedFaceSet 
{ creaseAngle 0.50 coordIndex [3,1,0,-1,3,2,1,-1]
coord Coordinate { point [0.886 0.831 0.356,0.886 0.669 0.356,0.767 0.669 0.356,0.767 0.831 0.356]
}}
appearance Appearance{material USE PIN-01 }
}
Shape { geometry IndexedFaceSet 
{ creaseAngle 0.50 coordIndex [3,1,0,-1,3,2,1,-1]
coord Coordinate { point [0.767 0.831 0.356,0.767 0.669 0.356,0.767 0.669 0.274,0.767 0.831 0.274]
}}
appearance Appearance{material USE PIN-01 }
}
Shape { geometry IndexedFaceSet 
{ creaseAngle 0.50 coordIndex [15,12,11,-1,15,13,12,-1,15,14,13,-1,16,10,9,-1,16,11,10,-1,16,15,11,-1,8,17,16,-1,8,16,9,-1,7,17,8,-1,6,18,17,-1,6,17,7,-1,5,18,6,-1,4,19,18,-1,4,20,19,-1,4,18,5,-1,3,21,20,-1,3,22,21,-1,3,20,4,-1,23,3,2,-1,23,22,3,-1,24,23,2,-1,25,2,1,-1,25,24,2,-1,26,25,1,-1,27,1,0,-1,27,26,1,-1]
coord Coordinate { point [0.767 0.831 0.274,0.886 0.831 0.274,0.906 0.831 0.268,0.920 0.831 0.254,0.925 0.831 0.234,0.925 0.831 0.122,0.928 0.831 0.095,0.937 0.831 0.069,0.952 0.831 0.046,0.971 0.831 0.027,0.994 0.831 0.012,1.020 0.831 0.003,1.047 0.831 0.000,1.181 0.831 0.000,1.181 0.831 0.083,1.047 0.831 0.083,1.028 0.831 0.088,1.013 0.831 0.102,1.008 0.831 0.122,1.008 0.831 0.234,1.005 0.831 0.261,0.996 0.831 0.287,0.981 0.831 0.310,0.962 0.831 0.330,0.939 0.831 0.344,0.913 0.831 0.353,0.886 0.831 0.356,0.767 0.831 0.356]
}}
appearance Appearance{material USE PIN-01 }
}
Shape { geometry IndexedFaceSet 
{ creaseAngle 0.50 coordIndex [15,11,12,-1,15,12,13,-1,15,13,14,-1,16,9,10,-1,16,10,11,-1,16,11,15,-1,8,16,17,-1,8,9,16,-1,7,8,17,-1,6,17,18,-1,6,7,17,-1,5,6,18,-1,4,18,19,-1,4,19,20,-1,4,5,18,-1,3,20,21,-1,3,21,22,-1,3,4,20,-1,23,2,3,-1,23,3,22,-1,24,2,23,-1,25,1,2,-1,25,2,24,-1,26,1,25,-1,27,0,1,-1,27,1,26,-1]
coord Coordinate { point [0.767 0.669 0.274,0.886 0.669 0.274,0.906 0.669 0.268,0.920 0.669 0.254,0.925 0.669 0.234,0.925 0.669 0.122,0.928 0.669 0.095,0.937 0.669 0.069,0.952 0.669 0.046,0.971 0.669 0.027,0.994 0.669 0.012,1.020 0.669 0.003,1.047 0.669 0.000,1.181 0.669 0.000,1.181 0.669 0.083,1.047 0.669 0.083,1.028 0.669 0.088,1.013 0.669 0.102,1.008 0.669 0.122,1.008 0.669 0.234,1.005 0.669 0.261,0.996 0.669 0.287,0.981 0.669 0.310,0.962 0.669 0.330,0.939 0.669 0.344,0.913 0.669 0.353,0.886 0.669 0.356,0.767 0.669 0.356]
}}
appearance Appearance{material USE PIN-01 }
}
Shape { geometry IndexedFaceSet 
{ creaseAngle 0.50 coordIndex [3,1,0,-1,3,2,1,-1]
coord Coordinate { point [0.767 0.331 0.274,0.767 0.169 0.274,0.886 0.169 0.274,0.886 0.331 0.274]
}}
appearance Appearance{material USE PIN-01 }
}
Shape { geometry IndexedFaceSet 
{ creaseAngle 0.50 coordIndex [6,1,0,-1,6,2,1,-1,7,3,2,-1,7,2,6,-1,5,4,3,-1,5,3,7,-1]
coord Coordinate { point [0.886 0.331 0.274,0.886 0.169 0.274,0.906 0.169 0.268,0.920 0.169 0.254,0.925 0.169 0.234,0.925 0.331 0.234,0.906 0.331 0.268,0.920 0.331 0.254]
}}
appearance Appearance{material USE PIN-01 }
}
Shape { geometry IndexedFaceSet 
{ creaseAngle 0.50 coordIndex [3,1,0,-1,3,2,1,-1]
coord Coordinate { point [0.925 0.331 0.234,0.925 0.169 0.234,0.925 0.169 0.122,0.925 0.331 0.122]
}}
appearance Appearance{material USE PIN-01 }
}
Shape { geometry IndexedFaceSet 
{ creaseAngle 0.50 coordIndex [10,1,0,-1,10,2,1,-1,11,3,2,-1,11,2,10,-1,12,4,3,-1,12,3,11,-1,13,5,4,-1,13,4,12,-1,14,6,5,-1,14,5,13,-1,15,7,6,-1,15,6,14,-1,9,8,7,-1,9,7,15,-1]
coord Coordinate { point [0.925 0.331 0.122,0.925 0.169 0.122,0.928 0.169 0.095,0.937 0.169 0.069,0.952 0.169 0.046,0.971 0.169 0.027,0.994 0.169 0.012,1.020 0.169 0.003,1.047 0.169 0.000,1.047 0.331 0.000,0.928 0.331 0.095,0.937 0.331 0.069,0.952 0.331 0.046,0.971 0.331 0.027,0.994 0.331 0.012,1.020 0.331 0.003]
}}
appearance Appearance{material USE PIN-01 }
}
Shape { geometry IndexedFaceSet 
{ creaseAngle 0.50 coordIndex [3,1,0,-1,3,2,1,-1]
coord Coordinate { point [1.047 0.331 0.000,1.047 0.169 0.000,1.181 0.169 0.000,1.181 0.331 0.000]
}}
appearance Appearance{material USE PIN-01 }
}
Shape { geometry IndexedFaceSet 
{ creaseAngle 0.50 coordIndex [3,1,0,-1,3,2,1,-1]
coord Coordinate { point [1.181 0.331 0.000,1.181 0.169 0.000,1.181 0.169 0.083,1.181 0.331 0.083]
}}
appearance Appearance{material USE PIN-01 }
}
Shape { geometry IndexedFaceSet 
{ creaseAngle 0.50 coordIndex [3,1,0,-1,3,2,1,-1]
coord Coordinate { point [1.181 0.331 0.083,1.181 0.169 0.083,1.047 0.169 0.083,1.047 0.331 0.083]
}}
appearance Appearance{material USE PIN-01 }
}
Shape { geometry IndexedFaceSet 
{ creaseAngle 0.50 coordIndex [6,1,0,-1,6,2,1,-1,7,3,2,-1,7,2,6,-1,5,4,3,-1,5,3,7,-1]
coord Coordinate { point [1.047 0.331 0.083,1.047 0.169 0.083,1.028 0.169 0.088,1.013 0.169 0.102,1.008 0.169 0.122,1.008 0.331 0.122,1.028 0.331 0.088,1.013 0.331 0.102]
}}
appearance Appearance{material USE PIN-01 }
}
Shape { geometry IndexedFaceSet 
{ creaseAngle 0.50 coordIndex [3,1,0,-1,3,2,1,-1]
coord Coordinate { point [1.008 0.331 0.122,1.008 0.169 0.122,1.008 0.169 0.234,1.008 0.331 0.234]
}}
appearance Appearance{material USE PIN-01 }
}
Shape { geometry IndexedFaceSet 
{ creaseAngle 0.50 coordIndex [10,1,0,-1,10,2,1,-1,11,3,2,-1,11,2,10,-1,12,4,3,-1,12,3,11,-1,13,5,4,-1,13,4,12,-1,14,6,5,-1,14,5,13,-1,15,7,6,-1,15,8,7,-1,15,6,14,-1,9,8,15,-1]
coord Coordinate { point [1.008 0.331 0.234,1.008 0.169 0.234,1.005 0.169 0.261,0.996 0.169 0.287,0.981 0.169 0.310,0.962 0.169 0.330,0.939 0.169 0.344,0.913 0.169 0.353,0.886 0.169 0.356,0.886 0.331 0.356,1.005 0.331 0.261,0.996 0.331 0.287,0.981 0.331 0.310,0.962 0.331 0.330,0.939 0.331 0.344,0.913 0.331 0.353]
}}
appearance Appearance{material USE PIN-01 }
}
Shape { geometry IndexedFaceSet 
{ creaseAngle 0.50 coordIndex [3,1,0,-1,3,2,1,-1]
coord Coordinate { point [0.886 0.331 0.356,0.886 0.169 0.356,0.767 0.169 0.356,0.767 0.331 0.356]
}}
appearance Appearance{material USE PIN-01 }
}
Shape { geometry IndexedFaceSet 
{ creaseAngle 0.50 coordIndex [3,1,0,-1,3,2,1,-1]
coord Coordinate { point [0.767 0.331 0.356,0.767 0.169 0.356,0.767 0.169 0.274,0.767 0.331 0.274]
}}
appearance Appearance{material USE PIN-01 }
}
Shape { geometry IndexedFaceSet 
{ creaseAngle 0.50 coordIndex [15,12,11,-1,15,13,12,-1,15,14,13,-1,16,10,9,-1,16,11,10,-1,16,15,11,-1,8,17,16,-1,8,16,9,-1,7,17,8,-1,6,18,17,-1,6,17,7,-1,5,18,6,-1,4,19,18,-1,4,20,19,-1,4,18,5,-1,3,21,20,-1,3,22,21,-1,3,20,4,-1,23,3,2,-1,23,22,3,-1,24,23,2,-1,25,2,1,-1,25,24,2,-1,26,25,1,-1,27,1,0,-1,27,26,1,-1]
coord Coordinate { point [0.767 0.331 0.274,0.886 0.331 0.274,0.906 0.331 0.268,0.920 0.331 0.254,0.925 0.331 0.234,0.925 0.331 0.122,0.928 0.331 0.095,0.937 0.331 0.069,0.952 0.331 0.046,0.971 0.331 0.027,0.994 0.331 0.012,1.020 0.331 0.003,1.047 0.331 0.000,1.181 0.331 0.000,1.181 0.331 0.083,1.047 0.331 0.083,1.028 0.331 0.088,1.013 0.331 0.102,1.008 0.331 0.122,1.008 0.331 0.234,1.005 0.331 0.261,0.996 0.331 0.287,0.981 0.331 0.310,0.962 0.331 0.330,0.939 0.331 0.344,0.913 0.331 0.353,0.886 0.331 0.356,0.767 0.331 0.356]
}}
appearance Appearance{material USE PIN-01 }
}
Shape { geometry IndexedFaceSet 
{ creaseAngle 0.50 coordIndex [15,11,12,-1,15,12,13,-1,15,13,14,-1,16,9,10,-1,16,10,11,-1,16,11,15,-1,8,16,17,-1,8,9,16,-1,7,8,17,-1,6,17,18,-1,6,7,17,-1,5,6,18,-1,4,18,19,-1,4,19,20,-1,4,5,18,-1,3,20,21,-1,3,21,22,-1,3,4,20,-1,23,2,3,-1,23,3,22,-1,24,2,23,-1,25,1,2,-1,25,2,24,-1,26,1,25,-1,27,0,1,-1,27,1,26,-1]
coord Coordinate { point [0.767 0.169 0.274,0.886 0.169 0.274,0.906 0.169 0.268,0.920 0.169 0.254,0.925 0.169 0.234,0.925 0.169 0.122,0.928 0.169 0.095,0.937 0.169 0.069,0.952 0.169 0.046,0.971 0.169 0.027,0.994 0.169 0.012,1.020 0.169 0.003,1.047 0.169 0.000,1.181 0.169 0.000,1.181 0.169 0.083,1.047 0.169 0.083,1.028 0.169 0.088,1.013 0.169 0.102,1.008 0.169 0.122,1.008 0.169 0.234,1.005 0.169 0.261,0.996 0.169 0.287,0.981 0.169 0.310,0.962 0.169 0.330,0.939 0.169 0.344,0.913 0.169 0.353,0.886 0.169 0.356,0.767 0.169 0.356]
}}
appearance Appearance{material USE PIN-01 }
}
Shape { geometry IndexedFaceSet 
{ creaseAngle 0.50 coordIndex [3,1,0,-1,3,2,1,-1]
coord Coordinate { point [0.767 -0.169 0.274,0.767 -0.331 0.274,0.886 -0.331 0.274,0.886 -0.169 0.274]
}}
appearance Appearance{material USE PIN-01 }
}
Shape { geometry IndexedFaceSet 
{ creaseAngle 0.50 coordIndex [6,1,0,-1,6,2,1,-1,7,3,2,-1,7,2,6,-1,5,4,3,-1,5,3,7,-1]
coord Coordinate { point [0.886 -0.169 0.274,0.886 -0.331 0.274,0.906 -0.331 0.268,0.920 -0.331 0.254,0.925 -0.331 0.234,0.925 -0.169 0.234,0.906 -0.169 0.268,0.920 -0.169 0.254]
}}
appearance Appearance{material USE PIN-01 }
}
Shape { geometry IndexedFaceSet 
{ creaseAngle 0.50 coordIndex [3,1,0,-1,3,2,1,-1]
coord Coordinate { point [0.925 -0.169 0.234,0.925 -0.331 0.234,0.925 -0.331 0.122,0.925 -0.169 0.122]
}}
appearance Appearance{material USE PIN-01 }
}
Shape { geometry IndexedFaceSet 
{ creaseAngle 0.50 coordIndex [10,1,0,-1,10,2,1,-1,11,3,2,-1,11,2,10,-1,12,4,3,-1,12,3,11,-1,13,5,4,-1,13,4,12,-1,14,6,5,-1,14,5,13,-1,15,7,6,-1,15,6,14,-1,9,8,7,-1,9,7,15,-1]
coord Coordinate { point [0.925 -0.169 0.122,0.925 -0.331 0.122,0.928 -0.331 0.095,0.937 -0.331 0.069,0.952 -0.331 0.046,0.971 -0.331 0.027,0.994 -0.331 0.012,1.020 -0.331 0.003,1.047 -0.331 0.000,1.047 -0.169 0.000,0.928 -0.169 0.095,0.937 -0.169 0.069,0.952 -0.169 0.046,0.971 -0.169 0.027,0.994 -0.169 0.012,1.020 -0.169 0.003]
}}
appearance Appearance{material USE PIN-01 }
}
Shape { geometry IndexedFaceSet 
{ creaseAngle 0.50 coordIndex [3,1,0,-1,3,2,1,-1]
coord Coordinate { point [1.047 -0.169 0.000,1.047 -0.331 0.000,1.181 -0.331 0.000,1.181 -0.169 0.000]
}}
appearance Appearance{material USE PIN-01 }
}
Shape { geometry IndexedFaceSet 
{ creaseAngle 0.50 coordIndex [3,1,0,-1,3,2,1,-1]
coord Coordinate { point [1.181 -0.169 0.000,1.181 -0.331 0.000,1.181 -0.331 0.083,1.181 -0.169 0.083]
}}
appearance Appearance{material USE PIN-01 }
}
Shape { geometry IndexedFaceSet 
{ creaseAngle 0.50 coordIndex [3,1,0,-1,3,2,1,-1]
coord Coordinate { point [1.181 -0.169 0.083,1.181 -0.331 0.083,1.047 -0.331 0.083,1.047 -0.169 0.083]
}}
appearance Appearance{material USE PIN-01 }
}
Shape { geometry IndexedFaceSet 
{ creaseAngle 0.50 coordIndex [6,1,0,-1,6,2,1,-1,7,3,2,-1,7,2,6,-1,5,4,3,-1,5,3,7,-1]
coord Coordinate { point [1.047 -0.169 0.083,1.047 -0.331 0.083,1.028 -0.331 0.088,1.013 -0.331 0.102,1.008 -0.331 0.122,1.008 -0.169 0.122,1.028 -0.169 0.088,1.013 -0.169 0.102]
}}
appearance Appearance{material USE PIN-01 }
}
Shape { geometry IndexedFaceSet 
{ creaseAngle 0.50 coordIndex [3,1,0,-1,3,2,1,-1]
coord Coordinate { point [1.008 -0.169 0.122,1.008 -0.331 0.122,1.008 -0.331 0.234,1.008 -0.169 0.234]
}}
appearance Appearance{material USE PIN-01 }
}
Shape { geometry IndexedFaceSet 
{ creaseAngle 0.50 coordIndex [10,1,0,-1,10,2,1,-1,11,3,2,-1,11,2,10,-1,12,4,3,-1,12,3,11,-1,13,5,4,-1,13,4,12,-1,14,6,5,-1,14,5,13,-1,15,7,6,-1,15,6,14,-1,9,8,7,-1,9,7,15,-1]
coord Coordinate { point [1.008 -0.169 0.234,1.008 -0.331 0.234,1.005 -0.331 0.261,0.996 -0.331 0.287,0.981 -0.331 0.310,0.962 -0.331 0.330,0.939 -0.331 0.344,0.913 -0.331 0.353,0.886 -0.331 0.356,0.886 -0.169 0.356,1.005 -0.169 0.261,0.996 -0.169 0.287,0.981 -0.169 0.310,0.962 -0.169 0.330,0.939 -0.169 0.344,0.913 -0.169 0.353]
}}
appearance Appearance{material USE PIN-01 }
}
Shape { geometry IndexedFaceSet 
{ creaseAngle 0.50 coordIndex [3,1,0,-1,3,2,1,-1]
coord Coordinate { point [0.886 -0.169 0.356,0.886 -0.331 0.356,0.767 -0.331 0.356,0.767 -0.169 0.356]
}}
appearance Appearance{material USE PIN-01 }
}
Shape { geometry IndexedFaceSet 
{ creaseAngle 0.50 coordIndex [3,1,0,-1,3,2,1,-1]
coord Coordinate { point [0.767 -0.169 0.356,0.767 -0.331 0.356,0.767 -0.331 0.274,0.767 -0.169 0.274]
}}
appearance Appearance{material USE PIN-01 }
}
Shape { geometry IndexedFaceSet 
{ creaseAngle 0.50 coordIndex [15,12,11,-1,15,13,12,-1,15,14,13,-1,16,10,9,-1,16,11,10,-1,16,15,11,-1,8,17,16,-1,8,16,9,-1,7,17,8,-1,6,18,17,-1,6,17,7,-1,5,18,6,-1,4,19,18,-1,4,20,19,-1,4,18,5,-1,3,21,20,-1,3,22,21,-1,3,20,4,-1,23,3,2,-1,23,22,3,-1,24,23,2,-1,25,2,1,-1,25,24,2,-1,26,25,1,-1,27,1,0,-1,27,26,1,-1]
coord Coordinate { point [0.767 -0.169 0.274,0.886 -0.169 0.274,0.906 -0.169 0.268,0.920 -0.169 0.254,0.925 -0.169 0.234,0.925 -0.169 0.122,0.928 -0.169 0.095,0.937 -0.169 0.069,0.952 -0.169 0.046,0.971 -0.169 0.027,0.994 -0.169 0.012,1.020 -0.169 0.003,1.047 -0.169 0.000,1.181 -0.169 0.000,1.181 -0.169 0.083,1.047 -0.169 0.083,1.028 -0.169 0.088,1.013 -0.169 0.102,1.008 -0.169 0.122,1.008 -0.169 0.234,1.005 -0.169 0.261,0.996 -0.169 0.287,0.981 -0.169 0.310,0.962 -0.169 0.330,0.939 -0.169 0.344,0.913 -0.169 0.353,0.886 -0.169 0.356,0.767 -0.169 0.356]
}}
appearance Appearance{material USE PIN-01 }
}
Shape { geometry IndexedFaceSet 
{ creaseAngle 0.50 coordIndex [15,11,12,-1,15,12,13,-1,15,13,14,-1,16,9,10,-1,16,10,11,-1,16,11,15,-1,8,16,17,-1,8,9,16,-1,7,8,17,-1,6,17,18,-1,6,7,17,-1,5,6,18,-1,4,18,19,-1,4,19,20,-1,4,5,18,-1,3,20,21,-1,3,21,22,-1,3,4,20,-1,23,2,3,-1,23,3,22,-1,24,2,23,-1,25,1,2,-1,25,2,24,-1,26,1,25,-1,27,0,1,-1,27,1,26,-1]
coord Coordinate { point [0.767 -0.331 0.274,0.886 -0.331 0.274,0.906 -0.331 0.268,0.920 -0.331 0.254,0.925 -0.331 0.234,0.925 -0.331 0.122,0.928 -0.331 0.095,0.937 -0.331 0.069,0.952 -0.331 0.046,0.971 -0.331 0.027,0.994 -0.331 0.012,1.020 -0.331 0.003,1.047 -0.331 0.000,1.181 -0.331 0.000,1.181 -0.331 0.083,1.047 -0.331 0.083,1.028 -0.331 0.088,1.013 -0.331 0.102,1.008 -0.331 0.122,1.008 -0.331 0.234,1.005 -0.331 0.261,0.996 -0.331 0.287,0.981 -0.331 0.310,0.962 -0.331 0.330,0.939 -0.331 0.344,0.913 -0.331 0.353,0.886 -0.331 0.356,0.767 -0.331 0.356]
}}
appearance Appearance{material USE PIN-01 }
}
Shape { geometry IndexedFaceSet 
{ creaseAngle 0.50 coordIndex [3,1,0,-1,3,2,1,-1]
coord Coordinate { point [0.767 -0.669 0.274,0.767 -0.831 0.274,0.886 -0.831 0.274,0.886 -0.669 0.274]
}}
appearance Appearance{material USE PIN-01 }
}
Shape { geometry IndexedFaceSet 
{ creaseAngle 0.50 coordIndex [6,1,0,-1,6,2,1,-1,7,3,2,-1,7,2,6,-1,5,4,3,-1,5,3,7,-1]
coord Coordinate { point [0.886 -0.669 0.274,0.886 -0.831 0.274,0.906 -0.831 0.268,0.920 -0.831 0.254,0.925 -0.831 0.234,0.925 -0.669 0.234,0.906 -0.669 0.268,0.920 -0.669 0.254]
}}
appearance Appearance{material USE PIN-01 }
}
Shape { geometry IndexedFaceSet 
{ creaseAngle 0.50 coordIndex [3,1,0,-1,3,2,1,-1]
coord Coordinate { point [0.925 -0.669 0.234,0.925 -0.831 0.234,0.925 -0.831 0.122,0.925 -0.669 0.122]
}}
appearance Appearance{material USE PIN-01 }
}
Shape { geometry IndexedFaceSet 
{ creaseAngle 0.50 coordIndex [10,1,0,-1,10,2,1,-1,11,3,2,-1,11,2,10,-1,12,4,3,-1,12,3,11,-1,13,5,4,-1,13,4,12,-1,14,6,5,-1,14,7,6,-1,14,5,13,-1,15,7,14,-1,9,8,7,-1,9,7,15,-1]
coord Coordinate { point [0.925 -0.669 0.122,0.925 -0.831 0.122,0.928 -0.831 0.095,0.937 -0.831 0.069,0.952 -0.831 0.046,0.971 -0.831 0.027,0.994 -0.831 0.012,1.020 -0.831 0.003,1.047 -0.831 0.000,1.047 -0.669 0.000,0.928 -0.669 0.095,0.937 -0.669 0.069,0.952 -0.669 0.046,0.971 -0.669 0.027,0.994 -0.669 0.012,1.020 -0.669 0.003]
}}
appearance Appearance{material USE PIN-01 }
}
Shape { geometry IndexedFaceSet 
{ creaseAngle 0.50 coordIndex [3,1,0,-1,3,2,1,-1]
coord Coordinate { point [1.047 -0.669 0.000,1.047 -0.831 0.000,1.181 -0.831 0.000,1.181 -0.669 0.000]
}}
appearance Appearance{material USE PIN-01 }
}
Shape { geometry IndexedFaceSet 
{ creaseAngle 0.50 coordIndex [3,1,0,-1,3,2,1,-1]
coord Coordinate { point [1.181 -0.669 0.000,1.181 -0.831 0.000,1.181 -0.831 0.083,1.181 -0.669 0.083]
}}
appearance Appearance{material USE PIN-01 }
}
Shape { geometry IndexedFaceSet 
{ creaseAngle 0.50 coordIndex [3,1,0,-1,3,2,1,-1]
coord Coordinate { point [1.181 -0.669 0.083,1.181 -0.831 0.083,1.047 -0.831 0.083,1.047 -0.669 0.083]
}}
appearance Appearance{material USE PIN-01 }
}
Shape { geometry IndexedFaceSet 
{ creaseAngle 0.50 coordIndex [6,1,0,-1,6,2,1,-1,7,3,2,-1,7,2,6,-1,5,4,3,-1,5,3,7,-1]
coord Coordinate { point [1.047 -0.669 0.083,1.047 -0.831 0.083,1.028 -0.831 0.088,1.013 -0.831 0.102,1.008 -0.831 0.122,1.008 -0.669 0.122,1.028 -0.669 0.088,1.013 -0.669 0.102]
}}
appearance Appearance{material USE PIN-01 }
}
Shape { geometry IndexedFaceSet 
{ creaseAngle 0.50 coordIndex [3,1,0,-1,3,2,1,-1]
coord Coordinate { point [1.008 -0.669 0.122,1.008 -0.831 0.122,1.008 -0.831 0.234,1.008 -0.669 0.234]
}}
appearance Appearance{material USE PIN-01 }
}
Shape { geometry IndexedFaceSet 
{ creaseAngle 0.50 coordIndex [10,1,0,-1,10,2,1,-1,11,3,2,-1,11,2,10,-1,12,4,3,-1,12,3,11,-1,13,5,4,-1,13,4,12,-1,14,6,5,-1,14,5,13,-1,15,7,6,-1,15,6,14,-1,9,8,7,-1,9,7,15,-1]
coord Coordinate { point [1.008 -0.669 0.234,1.008 -0.831 0.234,1.005 -0.831 0.261,0.996 -0.831 0.287,0.981 -0.831 0.310,0.962 -0.831 0.330,0.939 -0.831 0.344,0.913 -0.831 0.353,0.886 -0.831 0.356,0.886 -0.669 0.356,1.005 -0.669 0.261,0.996 -0.669 0.287,0.981 -0.669 0.310,0.962 -0.669 0.330,0.939 -0.669 0.344,0.913 -0.669 0.353]
}}
appearance Appearance{material USE PIN-01 }
}
Shape { geometry IndexedFaceSet 
{ creaseAngle 0.50 coordIndex [3,1,0,-1,3,2,1,-1]
coord Coordinate { point [0.886 -0.669 0.356,0.886 -0.831 0.356,0.767 -0.831 0.356,0.767 -0.669 0.356]
}}
appearance Appearance{material USE PIN-01 }
}
Shape { geometry IndexedFaceSet 
{ creaseAngle 0.50 coordIndex [3,1,0,-1,3,2,1,-1]
coord Coordinate { point [0.767 -0.669 0.356,0.767 -0.831 0.356,0.767 -0.831 0.274,0.767 -0.669 0.274]
}}
appearance Appearance{material USE PIN-01 }
}
Shape { geometry IndexedFaceSet 
{ creaseAngle 0.50 coordIndex [15,12,11,-1,15,13,12,-1,15,14,13,-1,16,10,9,-1,16,11,10,-1,16,15,11,-1,8,17,16,-1,8,16,9,-1,7,17,8,-1,6,18,17,-1,6,17,7,-1,5,18,6,-1,4,19,18,-1,4,20,19,-1,4,18,5,-1,3,21,20,-1,3,22,21,-1,3,20,4,-1,23,3,2,-1,23,22,3,-1,24,23,2,-1,25,2,1,-1,25,24,2,-1,26,25,1,-1,27,1,0,-1,27,26,1,-1]
coord Coordinate { point [0.767 -0.669 0.274,0.886 -0.669 0.274,0.906 -0.669 0.268,0.920 -0.669 0.254,0.925 -0.669 0.234,0.925 -0.669 0.122,0.928 -0.669 0.095,0.937 -0.669 0.069,0.952 -0.669 0.046,0.971 -0.669 0.027,0.994 -0.669 0.012,1.020 -0.669 0.003,1.047 -0.669 0.000,1.181 -0.669 0.000,1.181 -0.669 0.083,1.047 -0.669 0.083,1.028 -0.669 0.088,1.013 -0.669 0.102,1.008 -0.669 0.122,1.008 -0.669 0.234,1.005 -0.669 0.261,0.996 -0.669 0.287,0.981 -0.669 0.310,0.962 -0.669 0.330,0.939 -0.669 0.344,0.913 -0.669 0.353,0.886 -0.669 0.356,0.767 -0.669 0.356]
}}
appearance Appearance{material USE PIN-01 }
}
Shape { geometry IndexedFaceSet 
{ creaseAngle 0.50 coordIndex [15,11,12,-1,15,12,13,-1,15,13,14,-1,16,9,10,-1,16,10,11,-1,16,11,15,-1,8,16,17,-1,8,9,16,-1,7,8,17,-1,6,17,18,-1,6,7,17,-1,5,6,18,-1,4,18,19,-1,4,19,20,-1,4,5,18,-1,3,20,21,-1,3,21,22,-1,3,4,20,-1,23,2,3,-1,23,3,22,-1,24,2,23,-1,25,1,2,-1,25,2,24,-1,26,1,25,-1,27,0,1,-1,27,1,26,-1]
coord Coordinate { point [0.767 -0.831 0.274,0.886 -0.831 0.274,0.906 -0.831 0.268,0.920 -0.831 0.254,0.925 -0.831 0.234,0.925 -0.831 0.122,0.928 -0.831 0.095,0.937 -0.831 0.069,0.952 -0.831 0.046,0.971 -0.831 0.027,0.994 -0.831 0.012,1.020 -0.831 0.003,1.047 -0.831 0.000,1.181 -0.831 0.000,1.181 -0.831 0.083,1.047 -0.831 0.083,1.028 -0.831 0.088,1.013 -0.831 0.102,1.008 -0.831 0.122,1.008 -0.831 0.234,1.005 -0.831 0.261,0.996 -0.831 0.287,0.981 -0.831 0.310,0.962 -0.831 0.330,0.939 -0.831 0.344,0.913 -0.831 0.353,0.886 -0.831 0.356,0.767 -0.831 0.356]
}}
appearance Appearance{material USE PIN-01 }
}
Shape { geometry IndexedFaceSet 
{ creaseAngle 0.50 coordIndex [3,1,0,-1,3,2,1,-1]
coord Coordinate { point [-0.767 -0.831 0.274,-0.767 -0.669 0.274,-0.886 -0.669 0.274,-0.886 -0.831 0.274]
}}
appearance Appearance{material USE PIN-01 }
}
Shape { geometry IndexedFaceSet 
{ creaseAngle 0.50 coordIndex [6,1,0,-1,6,2,1,-1,7,3,2,-1,7,2,6,-1,5,4,3,-1,5,3,7,-1]
coord Coordinate { point [-0.886 -0.831 0.274,-0.886 -0.669 0.274,-0.906 -0.669 0.268,-0.920 -0.669 0.254,-0.925 -0.669 0.234,-0.925 -0.831 0.234,-0.906 -0.831 0.268,-0.920 -0.831 0.254]
}}
appearance Appearance{material USE PIN-01 }
}
Shape { geometry IndexedFaceSet 
{ creaseAngle 0.50 coordIndex [3,1,0,-1,3,2,1,-1]
coord Coordinate { point [-0.925 -0.831 0.234,-0.925 -0.669 0.234,-0.925 -0.669 0.122,-0.925 -0.831 0.122]
}}
appearance Appearance{material USE PIN-01 }
}
Shape { geometry IndexedFaceSet 
{ creaseAngle 0.50 coordIndex [10,1,0,-1,10,2,1,-1,11,3,2,-1,11,2,10,-1,12,4,3,-1,12,3,11,-1,13,5,4,-1,13,4,12,-1,14,6,5,-1,14,5,13,-1,15,7,6,-1,15,6,14,-1,9,8,7,-1,9,7,15,-1]
coord Coordinate { point [-0.925 -0.831 0.122,-0.925 -0.669 0.122,-0.928 -0.669 0.095,-0.937 -0.669 0.069,-0.952 -0.669 0.046,-0.971 -0.669 0.027,-0.994 -0.669 0.012,-1.020 -0.669 0.003,-1.047 -0.669 0.000,-1.047 -0.831 0.000,-0.928 -0.831 0.095,-0.937 -0.831 0.069,-0.952 -0.831 0.046,-0.971 -0.831 0.027,-0.994 -0.831 0.012,-1.020 -0.831 0.003]
}}
appearance Appearance{material USE PIN-01 }
}
Shape { geometry IndexedFaceSet 
{ creaseAngle 0.50 coordIndex [3,1,0,-1,3,2,1,-1]
coord Coordinate { point [-1.047 -0.831 0.000,-1.047 -0.669 0.000,-1.181 -0.669 0.000,-1.181 -0.831 0.000]
}}
appearance Appearance{material USE PIN-01 }
}
Shape { geometry IndexedFaceSet 
{ creaseAngle 0.50 coordIndex [3,1,0,-1,3,2,1,-1]
coord Coordinate { point [-1.181 -0.831 0.000,-1.181 -0.669 0.000,-1.181 -0.669 0.083,-1.181 -0.831 0.083]
}}
appearance Appearance{material USE PIN-01 }
}
Shape { geometry IndexedFaceSet 
{ creaseAngle 0.50 coordIndex [3,1,0,-1,3,2,1,-1]
coord Coordinate { point [-1.181 -0.831 0.083,-1.181 -0.669 0.083,-1.047 -0.669 0.083,-1.047 -0.831 0.083]
}}
appearance Appearance{material USE PIN-01 }
}
Shape { geometry IndexedFaceSet 
{ creaseAngle 0.50 coordIndex [6,1,0,-1,6,2,1,-1,7,3,2,-1,7,2,6,-1,5,4,3,-1,5,3,7,-1]
coord Coordinate { point [-1.047 -0.831 0.083,-1.047 -0.669 0.083,-1.028 -0.669 0.088,-1.013 -0.669 0.102,-1.008 -0.669 0.122,-1.008 -0.831 0.122,-1.028 -0.831 0.088,-1.013 -0.831 0.102]
}}
appearance Appearance{material USE PIN-01 }
}
Shape { geometry IndexedFaceSet 
{ creaseAngle 0.50 coordIndex [3,1,0,-1,3,2,1,-1]
coord Coordinate { point [-1.008 -0.831 0.122,-1.008 -0.669 0.122,-1.008 -0.669 0.234,-1.008 -0.831 0.234]
}}
appearance Appearance{material USE PIN-01 }
}
Shape { geometry IndexedFaceSet 
{ creaseAngle 0.50 coordIndex [10,1,0,-1,10,2,1,-1,11,3,2,-1,11,2,10,-1,12,4,3,-1,12,3,11,-1,13,5,4,-1,13,4,12,-1,14,6,5,-1,14,5,13,-1,15,7,6,-1,15,6,14,-1,9,8,7,-1,9,7,15,-1]
coord Coordinate { point [-1.008 -0.831 0.234,-1.008 -0.669 0.234,-1.005 -0.669 0.261,-0.996 -0.669 0.287,-0.981 -0.669 0.310,-0.962 -0.669 0.330,-0.939 -0.669 0.344,-0.913 -0.669 0.353,-0.886 -0.669 0.356,-0.886 -0.831 0.356,-1.005 -0.831 0.261,-0.996 -0.831 0.287,-0.981 -0.831 0.310,-0.962 -0.831 0.330,-0.939 -0.831 0.344,-0.913 -0.831 0.353]
}}
appearance Appearance{material USE PIN-01 }
}
Shape { geometry IndexedFaceSet 
{ creaseAngle 0.50 coordIndex [3,1,0,-1,3,2,1,-1]
coord Coordinate { point [-0.886 -0.831 0.356,-0.886 -0.669 0.356,-0.767 -0.669 0.356,-0.767 -0.831 0.356]
}}
appearance Appearance{material USE PIN-01 }
}
Shape { geometry IndexedFaceSet 
{ creaseAngle 0.50 coordIndex [3,1,0,-1,3,2,1,-1]
coord Coordinate { point [-0.767 -0.831 0.356,-0.767 -0.669 0.356,-0.767 -0.669 0.274,-0.767 -0.831 0.274]
}}
appearance Appearance{material USE PIN-01 }
}
Shape { geometry IndexedFaceSet 
{ creaseAngle 0.50 coordIndex [15,12,11,-1,15,13,12,-1,15,14,13,-1,16,10,9,-1,16,11,10,-1,16,15,11,-1,8,17,16,-1,8,16,9,-1,7,17,8,-1,6,18,17,-1,6,17,7,-1,5,18,6,-1,4,19,18,-1,4,20,19,-1,4,18,5,-1,3,21,20,-1,3,22,21,-1,3,20,4,-1,23,3,2,-1,23,22,3,-1,24,23,2,-1,25,2,1,-1,25,24,2,-1,26,25,1,-1,27,1,0,-1,27,26,1,-1]
coord Coordinate { point [-0.767 -0.831 0.274,-0.886 -0.831 0.274,-0.906 -0.831 0.268,-0.920 -0.831 0.254,-0.925 -0.831 0.234,-0.925 -0.831 0.122,-0.928 -0.831 0.095,-0.937 -0.831 0.069,-0.952 -0.831 0.046,-0.971 -0.831 0.027,-0.994 -0.831 0.012,-1.020 -0.831 0.003,-1.047 -0.831 0.000,-1.181 -0.831 0.000,-1.181 -0.831 0.083,-1.047 -0.831 0.083,-1.028 -0.831 0.088,-1.013 -0.831 0.102,-1.008 -0.831 0.122,-1.008 -0.831 0.234,-1.005 -0.831 0.261,-0.996 -0.831 0.287,-0.981 -0.831 0.310,-0.962 -0.831 0.330,-0.939 -0.831 0.344,-0.913 -0.831 0.353,-0.886 -0.831 0.356,-0.767 -0.831 0.356]
}}
appearance Appearance{material USE PIN-01 }
}
Shape { geometry IndexedFaceSet 
{ creaseAngle 0.50 coordIndex [15,11,12,-1,15,12,13,-1,15,13,14,-1,16,9,10,-1,16,10,11,-1,16,11,15,-1,8,16,17,-1,8,9,16,-1,7,8,17,-1,6,17,18,-1,6,7,17,-1,5,6,18,-1,4,18,19,-1,4,19,20,-1,4,5,18,-1,3,20,21,-1,3,21,22,-1,3,4,20,-1,23,2,3,-1,23,3,22,-1,24,2,23,-1,25,1,2,-1,25,2,24,-1,26,1,25,-1,27,0,1,-1,27,1,26,-1]
coord Coordinate { point [-0.767 -0.669 0.274,-0.886 -0.669 0.274,-0.906 -0.669 0.268,-0.920 -0.669 0.254,-0.925 -0.669 0.234,-0.925 -0.669 0.122,-0.928 -0.669 0.095,-0.937 -0.669 0.069,-0.952 -0.669 0.046,-0.971 -0.669 0.027,-0.994 -0.669 0.012,-1.020 -0.669 0.003,-1.047 -0.669 0.000,-1.181 -0.669 0.000,-1.181 -0.669 0.083,-1.047 -0.669 0.083,-1.028 -0.669 0.088,-1.013 -0.669 0.102,-1.008 -0.669 0.122,-1.008 -0.669 0.234,-1.005 -0.669 0.261,-0.996 -0.669 0.287,-0.981 -0.669 0.310,-0.962 -0.669 0.330,-0.939 -0.669 0.344,-0.913 -0.669 0.353,-0.886 -0.669 0.356,-0.767 -0.669 0.356]
}}
appearance Appearance{material USE PIN-01 }
}
Shape { geometry IndexedFaceSet 
{ creaseAngle 0.50 coordIndex [3,1,0,-1,3,2,1,-1]
coord Coordinate { point [-0.767 -0.331 0.274,-0.767 -0.169 0.274,-0.886 -0.169 0.274,-0.886 -0.331 0.274]
}}
appearance Appearance{material USE PIN-01 }
}
Shape { geometry IndexedFaceSet 
{ creaseAngle 0.50 coordIndex [6,1,0,-1,6,2,1,-1,7,3,2,-1,7,2,6,-1,5,4,3,-1,5,3,7,-1]
coord Coordinate { point [-0.886 -0.331 0.274,-0.886 -0.169 0.274,-0.906 -0.169 0.268,-0.920 -0.169 0.254,-0.925 -0.169 0.234,-0.925 -0.331 0.234,-0.906 -0.331 0.268,-0.920 -0.331 0.254]
}}
appearance Appearance{material USE PIN-01 }
}
Shape { geometry IndexedFaceSet 
{ creaseAngle 0.50 coordIndex [3,1,0,-1,3,2,1,-1]
coord Coordinate { point [-0.925 -0.331 0.234,-0.925 -0.169 0.234,-0.925 -0.169 0.122,-0.925 -0.331 0.122]
}}
appearance Appearance{material USE PIN-01 }
}
Shape { geometry IndexedFaceSet 
{ creaseAngle 0.50 coordIndex [10,1,0,-1,10,2,1,-1,11,3,2,-1,11,2,10,-1,12,4,3,-1,12,3,11,-1,13,5,4,-1,13,4,12,-1,14,6,5,-1,14,5,13,-1,15,7,6,-1,15,6,14,-1,9,8,7,-1,9,7,15,-1]
coord Coordinate { point [-0.925 -0.331 0.122,-0.925 -0.169 0.122,-0.928 -0.169 0.095,-0.937 -0.169 0.069,-0.952 -0.169 0.046,-0.971 -0.169 0.027,-0.994 -0.169 0.012,-1.020 -0.169 0.003,-1.047 -0.169 0.000,-1.047 -0.331 0.000,-0.928 -0.331 0.095,-0.937 -0.331 0.069,-0.952 -0.331 0.046,-0.971 -0.331 0.027,-0.994 -0.331 0.012,-1.020 -0.331 0.003]
}}
appearance Appearance{material USE PIN-01 }
}
Shape { geometry IndexedFaceSet 
{ creaseAngle 0.50 coordIndex [3,1,0,-1,3,2,1,-1]
coord Coordinate { point [-1.047 -0.331 0.000,-1.047 -0.169 0.000,-1.181 -0.169 0.000,-1.181 -0.331 0.000]
}}
appearance Appearance{material USE PIN-01 }
}
Shape { geometry IndexedFaceSet 
{ creaseAngle 0.50 coordIndex [3,1,0,-1,3,2,1,-1]
coord Coordinate { point [-1.181 -0.331 0.000,-1.181 -0.169 0.000,-1.181 -0.169 0.083,-1.181 -0.331 0.083]
}}
appearance Appearance{material USE PIN-01 }
}
Shape { geometry IndexedFaceSet 
{ creaseAngle 0.50 coordIndex [3,1,0,-1,3,2,1,-1]
coord Coordinate { point [-1.181 -0.331 0.083,-1.181 -0.169 0.083,-1.047 -0.169 0.083,-1.047 -0.331 0.083]
}}
appearance Appearance{material USE PIN-01 }
}
Shape { geometry IndexedFaceSet 
{ creaseAngle 0.50 coordIndex [6,1,0,-1,6,2,1,-1,7,3,2,-1,7,2,6,-1,5,4,3,-1,5,3,7,-1]
coord Coordinate { point [-1.047 -0.331 0.083,-1.047 -0.169 0.083,-1.028 -0.169 0.088,-1.013 -0.169 0.102,-1.008 -0.169 0.122,-1.008 -0.331 0.122,-1.028 -0.331 0.088,-1.013 -0.331 0.102]
}}
appearance Appearance{material USE PIN-01 }
}
Shape { geometry IndexedFaceSet 
{ creaseAngle 0.50 coordIndex [3,1,0,-1,3,2,1,-1]
coord Coordinate { point [-1.008 -0.331 0.122,-1.008 -0.169 0.122,-1.008 -0.169 0.234,-1.008 -0.331 0.234]
}}
appearance Appearance{material USE PIN-01 }
}
Shape { geometry IndexedFaceSet 
{ creaseAngle 0.50 coordIndex [10,1,0,-1,10,2,1,-1,11,3,2,-1,11,2,10,-1,12,4,3,-1,12,3,11,-1,13,5,4,-1,13,4,12,-1,14,6,5,-1,14,5,13,-1,15,7,6,-1,15,8,7,-1,15,6,14,-1,9,8,15,-1]
coord Coordinate { point [-1.008 -0.331 0.234,-1.008 -0.169 0.234,-1.005 -0.169 0.261,-0.996 -0.169 0.287,-0.981 -0.169 0.310,-0.962 -0.169 0.330,-0.939 -0.169 0.344,-0.913 -0.169 0.353,-0.886 -0.169 0.356,-0.886 -0.331 0.356,-1.005 -0.331 0.261,-0.996 -0.331 0.287,-0.981 -0.331 0.310,-0.962 -0.331 0.330,-0.939 -0.331 0.344,-0.913 -0.331 0.353]
}}
appearance Appearance{material USE PIN-01 }
}
Shape { geometry IndexedFaceSet 
{ creaseAngle 0.50 coordIndex [3,1,0,-1,3,2,1,-1]
coord Coordinate { point [-0.886 -0.331 0.356,-0.886 -0.169 0.356,-0.767 -0.169 0.356,-0.767 -0.331 0.356]
}}
appearance Appearance{material USE PIN-01 }
}
Shape { geometry IndexedFaceSet 
{ creaseAngle 0.50 coordIndex [3,1,0,-1,3,2,1,-1]
coord Coordinate { point [-0.767 -0.331 0.356,-0.767 -0.169 0.356,-0.767 -0.169 0.274,-0.767 -0.331 0.274]
}}
appearance Appearance{material USE PIN-01 }
}
Shape { geometry IndexedFaceSet 
{ creaseAngle 0.50 coordIndex [15,12,11,-1,15,13,12,-1,15,14,13,-1,16,10,9,-1,16,11,10,-1,16,15,11,-1,8,17,16,-1,8,16,9,-1,7,17,8,-1,6,18,17,-1,6,17,7,-1,5,18,6,-1,4,19,18,-1,4,20,19,-1,4,18,5,-1,3,21,20,-1,3,22,21,-1,3,20,4,-1,23,3,2,-1,23,22,3,-1,24,23,2,-1,25,2,1,-1,25,24,2,-1,26,25,1,-1,27,1,0,-1,27,26,1,-1]
coord Coordinate { point [-0.767 -0.331 0.274,-0.886 -0.331 0.274,-0.906 -0.331 0.268,-0.920 -0.331 0.254,-0.925 -0.331 0.234,-0.925 -0.331 0.122,-0.928 -0.331 0.095,-0.937 -0.331 0.069,-0.952 -0.331 0.046,-0.971 -0.331 0.027,-0.994 -0.331 0.012,-1.020 -0.331 0.003,-1.047 -0.331 0.000,-1.181 -0.331 0.000,-1.181 -0.331 0.083,-1.047 -0.331 0.083,-1.028 -0.331 0.088,-1.013 -0.331 0.102,-1.008 -0.331 0.122,-1.008 -0.331 0.234,-1.005 -0.331 0.261,-0.996 -0.331 0.287,-0.981 -0.331 0.310,-0.962 -0.331 0.330,-0.939 -0.331 0.344,-0.913 -0.331 0.353,-0.886 -0.331 0.356,-0.767 -0.331 0.356]
}}
appearance Appearance{material USE PIN-01 }
}
Shape { geometry IndexedFaceSet 
{ creaseAngle 0.50 coordIndex [15,11,12,-1,15,12,13,-1,15,13,14,-1,16,9,10,-1,16,10,11,-1,16,11,15,-1,8,16,17,-1,8,9,16,-1,7,8,17,-1,6,17,18,-1,6,7,17,-1,5,6,18,-1,4,18,19,-1,4,19,20,-1,4,5,18,-1,3,20,21,-1,3,21,22,-1,3,4,20,-1,23,2,3,-1,23,3,22,-1,24,2,23,-1,25,1,2,-1,25,2,24,-1,26,1,25,-1,27,0,1,-1,27,1,26,-1]
coord Coordinate { point [-0.767 -0.169 0.274,-0.886 -0.169 0.274,-0.906 -0.169 0.268,-0.920 -0.169 0.254,-0.925 -0.169 0.234,-0.925 -0.169 0.122,-0.928 -0.169 0.095,-0.937 -0.169 0.069,-0.952 -0.169 0.046,-0.971 -0.169 0.027,-0.994 -0.169 0.012,-1.020 -0.169 0.003,-1.047 -0.169 0.000,-1.181 -0.169 0.000,-1.181 -0.169 0.083,-1.047 -0.169 0.083,-1.028 -0.169 0.088,-1.013 -0.169 0.102,-1.008 -0.169 0.122,-1.008 -0.169 0.234,-1.005 -0.169 0.261,-0.996 -0.169 0.287,-0.981 -0.169 0.310,-0.962 -0.169 0.330,-0.939 -0.169 0.344,-0.913 -0.169 0.353,-0.886 -0.169 0.356,-0.767 -0.169 0.356]
}}
appearance Appearance{material USE PIN-01 }
}
Shape { geometry IndexedFaceSet 
{ creaseAngle 0.50 coordIndex [3,1,0,-1,3,2,1,-1]
coord Coordinate { point [-0.767 0.669 0.274,-0.767 0.831 0.274,-0.886 0.831 0.274,-0.886 0.669 0.274]
}}
appearance Appearance{material USE PIN-01 }
}
Shape { geometry IndexedFaceSet 
{ creaseAngle 0.50 coordIndex [6,1,0,-1,6,2,1,-1,7,3,2,-1,7,2,6,-1,5,4,3,-1,5,3,7,-1]
coord Coordinate { point [-0.886 0.669 0.274,-0.886 0.831 0.274,-0.906 0.831 0.268,-0.920 0.831 0.254,-0.925 0.831 0.234,-0.925 0.669 0.234,-0.906 0.669 0.268,-0.920 0.669 0.254]
}}
appearance Appearance{material USE PIN-01 }
}
Shape { geometry IndexedFaceSet 
{ creaseAngle 0.50 coordIndex [3,1,0,-1,3,2,1,-1]
coord Coordinate { point [-0.925 0.669 0.234,-0.925 0.831 0.234,-0.925 0.831 0.122,-0.925 0.669 0.122]
}}
appearance Appearance{material USE PIN-01 }
}
Shape { geometry IndexedFaceSet 
{ creaseAngle 0.50 coordIndex [10,1,0,-1,10,2,1,-1,11,3,2,-1,11,2,10,-1,12,4,3,-1,12,3,11,-1,13,5,4,-1,13,4,12,-1,14,6,5,-1,14,5,13,-1,15,7,6,-1,15,6,14,-1,9,8,7,-1,9,7,15,-1]
coord Coordinate { point [-0.925 0.669 0.122,-0.925 0.831 0.122,-0.928 0.831 0.095,-0.937 0.831 0.069,-0.952 0.831 0.046,-0.971 0.831 0.027,-0.994 0.831 0.012,-1.020 0.831 0.003,-1.047 0.831 0.000,-1.047 0.669 0.000,-0.928 0.669 0.095,-0.937 0.669 0.069,-0.952 0.669 0.046,-0.971 0.669 0.027,-0.994 0.669 0.012,-1.020 0.669 0.003]
}}
appearance Appearance{material USE PIN-01 }
}
Shape { geometry IndexedFaceSet 
{ creaseAngle 0.50 coordIndex [3,1,0,-1,3,2,1,-1]
coord Coordinate { point [-1.047 0.669 0.000,-1.047 0.831 0.000,-1.181 0.831 0.000,-1.181 0.669 0.000]
}}
appearance Appearance{material USE PIN-01 }
}
Shape { geometry IndexedFaceSet 
{ creaseAngle 0.50 coordIndex [3,1,0,-1,3,2,1,-1]
coord Coordinate { point [-1.181 0.669 0.000,-1.181 0.831 0.000,-1.181 0.831 0.083,-1.181 0.669 0.083]
}}
appearance Appearance{material USE PIN-01 }
}
Shape { geometry IndexedFaceSet 
{ creaseAngle 0.50 coordIndex [3,1,0,-1,3,2,1,-1]
coord Coordinate { point [-1.181 0.669 0.083,-1.181 0.831 0.083,-1.047 0.831 0.083,-1.047 0.669 0.083]
}}
appearance Appearance{material USE PIN-01 }
}
Shape { geometry IndexedFaceSet 
{ creaseAngle 0.50 coordIndex [6,1,0,-1,6,2,1,-1,7,3,2,-1,7,2,6,-1,5,4,3,-1,5,3,7,-1]
coord Coordinate { point [-1.047 0.669 0.083,-1.047 0.831 0.083,-1.028 0.831 0.088,-1.013 0.831 0.102,-1.008 0.831 0.122,-1.008 0.669 0.122,-1.028 0.669 0.088,-1.013 0.669 0.102]
}}
appearance Appearance{material USE PIN-01 }
}
Shape { geometry IndexedFaceSet 
{ creaseAngle 0.50 coordIndex [3,1,0,-1,3,2,1,-1]
coord Coordinate { point [-1.008 0.669 0.122,-1.008 0.831 0.122,-1.008 0.831 0.234,-1.008 0.669 0.234]
}}
appearance Appearance{material USE PIN-01 }
}
Shape { geometry IndexedFaceSet 
{ creaseAngle 0.50 coordIndex [10,1,0,-1,10,2,1,-1,11,3,2,-1,11,2,10,-1,12,4,3,-1,12,3,11,-1,13,5,4,-1,13,4,12,-1,14,6,5,-1,14,5,13,-1,15,7,6,-1,15,6,14,-1,9,8,7,-1,9,7,15,-1]
coord Coordinate { point [-1.008 0.669 0.234,-1.008 0.831 0.234,-1.005 0.831 0.261,-0.996 0.831 0.287,-0.981 0.831 0.310,-0.962 0.831 0.330,-0.939 0.831 0.344,-0.913 0.831 0.353,-0.886 0.831 0.356,-0.886 0.669 0.356,-1.005 0.669 0.261,-0.996 0.669 0.287,-0.981 0.669 0.310,-0.962 0.669 0.330,-0.939 0.669 0.344,-0.913 0.669 0.353]
}}
appearance Appearance{material USE PIN-01 }
}
Shape { geometry IndexedFaceSet 
{ creaseAngle 0.50 coordIndex [3,1,0,-1,3,2,1,-1]
coord Coordinate { point [-0.886 0.669 0.356,-0.886 0.831 0.356,-0.767 0.831 0.356,-0.767 0.669 0.356]
}}
appearance Appearance{material USE PIN-01 }
}
Shape { geometry IndexedFaceSet 
{ creaseAngle 0.50 coordIndex [3,1,0,-1,3,2,1,-1]
coord Coordinate { point [-0.767 0.669 0.356,-0.767 0.831 0.356,-0.767 0.831 0.274,-0.767 0.669 0.274]
}}
appearance Appearance{material USE PIN-01 }
}
Shape { geometry IndexedFaceSet 
{ creaseAngle 0.50 coordIndex [15,12,11,-1,15,13,12,-1,15,14,13,-1,16,10,9,-1,16,11,10,-1,16,15,11,-1,8,17,16,-1,8,16,9,-1,7,17,8,-1,6,18,17,-1,6,17,7,-1,5,18,6,-1,4,19,18,-1,4,20,19,-1,4,18,5,-1,3,21,20,-1,3,22,21,-1,3,20,4,-1,23,3,2,-1,23,22,3,-1,24,23,2,-1,25,2,1,-1,25,24,2,-1,26,25,1,-1,27,1,0,-1,27,26,1,-1]
coord Coordinate { point [-0.767 0.669 0.274,-0.886 0.669 0.274,-0.906 0.669 0.268,-0.920 0.669 0.254,-0.925 0.669 0.234,-0.925 0.669 0.122,-0.928 0.669 0.095,-0.937 0.669 0.069,-0.952 0.669 0.046,-0.971 0.669 0.027,-0.994 0.669 0.012,-1.020 0.669 0.003,-1.047 0.669 0.000,-1.181 0.669 0.000,-1.181 0.669 0.083,-1.047 0.669 0.083,-1.028 0.669 0.088,-1.013 0.669 0.102,-1.008 0.669 0.122,-1.008 0.669 0.234,-1.005 0.669 0.261,-0.996 0.669 0.287,-0.981 0.669 0.310,-0.962 0.669 0.330,-0.939 0.669 0.344,-0.913 0.669 0.353,-0.886 0.669 0.356,-0.767 0.669 0.356]
}}
appearance Appearance{material USE PIN-01 }
}
Shape { geometry IndexedFaceSet 
{ creaseAngle 0.50 coordIndex [15,11,12,-1,15,12,13,-1,15,13,14,-1,16,9,10,-1,16,10,11,-1,16,11,15,-1,8,16,17,-1,8,9,16,-1,7,8,17,-1,6,17,18,-1,6,7,17,-1,5,6,18,-1,4,18,19,-1,4,19,20,-1,4,5,18,-1,3,20,21,-1,3,21,22,-1,3,4,20,-1,23,2,3,-1,23,3,22,-1,24,2,23,-1,25,1,2,-1,25,2,24,-1,26,1,25,-1,27,0,1,-1,27,1,26,-1]
coord Coordinate { point [-0.767 0.831 0.274,-0.886 0.831 0.274,-0.906 0.831 0.268,-0.920 0.831 0.254,-0.925 0.831 0.234,-0.925 0.831 0.122,-0.928 0.831 0.095,-0.937 0.831 0.069,-0.952 0.831 0.046,-0.971 0.831 0.027,-0.994 0.831 0.012,-1.020 0.831 0.003,-1.047 0.831 0.000,-1.181 0.831 0.000,-1.181 0.831 0.083,-1.047 0.831 0.083,-1.028 0.831 0.088,-1.013 0.831 0.102,-1.008 0.831 0.122,-1.008 0.831 0.234,-1.005 0.831 0.261,-0.996 0.831 0.287,-0.981 0.831 0.310,-0.962 0.831 0.330,-0.939 0.831 0.344,-0.913 0.831 0.353,-0.886 0.831 0.356,-0.767 0.831 0.356]
}}
appearance Appearance{material USE PIN-01 }
}
Shape { geometry IndexedFaceSet 
{ creaseAngle 0.50 coordIndex [3,1,0,-1,3,2,1,-1]
coord Coordinate { point [-0.767 0.169 0.274,-0.767 0.331 0.274,-0.886 0.331 0.274,-0.886 0.169 0.274]
}}
appearance Appearance{material USE PIN-01 }
}
Shape { geometry IndexedFaceSet 
{ creaseAngle 0.50 coordIndex [6,1,0,-1,6,2,1,-1,7,3,2,-1,7,2,6,-1,5,4,3,-1,5,3,7,-1]
coord Coordinate { point [-0.886 0.169 0.274,-0.886 0.331 0.274,-0.906 0.331 0.268,-0.920 0.331 0.254,-0.925 0.331 0.234,-0.925 0.169 0.234,-0.906 0.169 0.268,-0.920 0.169 0.254]
}}
appearance Appearance{material USE PIN-01 }
}
Shape { geometry IndexedFaceSet 
{ creaseAngle 0.50 coordIndex [3,1,0,-1,3,2,1,-1]
coord Coordinate { point [-0.925 0.169 0.234,-0.925 0.331 0.234,-0.925 0.331 0.122,-0.925 0.169 0.122]
}}
appearance Appearance{material USE PIN-01 }
}
Shape { geometry IndexedFaceSet 
{ creaseAngle 0.50 coordIndex [10,1,0,-1,10,2,1,-1,11,3,2,-1,11,2,10,-1,12,4,3,-1,12,3,11,-1,13,5,4,-1,13,4,12,-1,14,6,5,-1,14,5,13,-1,15,7,6,-1,15,6,14,-1,9,8,7,-1,9,7,15,-1]
coord Coordinate { point [-0.925 0.169 0.122,-0.925 0.331 0.122,-0.928 0.331 0.095,-0.937 0.331 0.069,-0.952 0.331 0.046,-0.971 0.331 0.027,-0.994 0.331 0.012,-1.020 0.331 0.003,-1.047 0.331 0.000,-1.047 0.169 0.000,-0.928 0.169 0.095,-0.937 0.169 0.069,-0.952 0.169 0.046,-0.971 0.169 0.027,-0.994 0.169 0.012,-1.020 0.169 0.003]
}}
appearance Appearance{material USE PIN-01 }
}
Shape { geometry IndexedFaceSet 
{ creaseAngle 0.50 coordIndex [3,1,0,-1,3,2,1,-1]
coord Coordinate { point [-1.047 0.169 0.000,-1.047 0.331 0.000,-1.181 0.331 0.000,-1.181 0.169 0.000]
}}
appearance Appearance{material USE PIN-01 }
}
Shape { geometry IndexedFaceSet 
{ creaseAngle 0.50 coordIndex [3,1,0,-1,3,2,1,-1]
coord Coordinate { point [-1.181 0.169 0.000,-1.181 0.331 0.000,-1.181 0.331 0.083,-1.181 0.169 0.083]
}}
appearance Appearance{material USE PIN-01 }
}
Shape { geometry IndexedFaceSet 
{ creaseAngle 0.50 coordIndex [3,1,0,-1,3,2,1,-1]
coord Coordinate { point [-1.181 0.169 0.083,-1.181 0.331 0.083,-1.047 0.331 0.083,-1.047 0.169 0.083]
}}
appearance Appearance{material USE PIN-01 }
}
Shape { geometry IndexedFaceSet 
{ creaseAngle 0.50 coordIndex [6,1,0,-1,6,2,1,-1,7,3,2,-1,7,2,6,-1,5,4,3,-1,5,3,7,-1]
coord Coordinate { point [-1.047 0.169 0.083,-1.047 0.331 0.083,-1.028 0.331 0.088,-1.013 0.331 0.102,-1.008 0.331 0.122,-1.008 0.169 0.122,-1.028 0.169 0.088,-1.013 0.169 0.102]
}}
appearance Appearance{material USE PIN-01 }
}
Shape { geometry IndexedFaceSet 
{ creaseAngle 0.50 coordIndex [3,1,0,-1,3,2,1,-1]
coord Coordinate { point [-1.008 0.169 0.122,-1.008 0.331 0.122,-1.008 0.331 0.234,-1.008 0.169 0.234]
}}
appearance Appearance{material USE PIN-01 }
}
Shape { geometry IndexedFaceSet 
{ creaseAngle 0.50 coordIndex [10,1,0,-1,10,2,1,-1,11,3,2,-1,11,2,10,-1,12,4,3,-1,12,3,11,-1,13,5,4,-1,13,4,12,-1,14,6,5,-1,14,5,13,-1,15,7,6,-1,15,6,14,-1,9,8,7,-1,9,7,15,-1]
coord Coordinate { point [-1.008 0.169 0.234,-1.008 0.331 0.234,-1.005 0.331 0.261,-0.996 0.331 0.287,-0.981 0.331 0.310,-0.962 0.331 0.330,-0.939 0.331 0.344,-0.913 0.331 0.353,-0.886 0.331 0.356,-0.886 0.169 0.356,-1.005 0.169 0.261,-0.996 0.169 0.287,-0.981 0.169 0.310,-0.962 0.169 0.330,-0.939 0.169 0.344,-0.913 0.169 0.353]
}}
appearance Appearance{material USE PIN-01 }
}
Shape { geometry IndexedFaceSet 
{ creaseAngle 0.50 coordIndex [3,1,0,-1,3,2,1,-1]
coord Coordinate { point [-0.886 0.169 0.356,-0.886 0.331 0.356,-0.767 0.331 0.356,-0.767 0.169 0.356]
}}
appearance Appearance{material USE PIN-01 }
}
Shape { geometry IndexedFaceSet 
{ creaseAngle 0.50 coordIndex [3,1,0,-1,3,2,1,-1]
coord Coordinate { point [-0.767 0.169 0.356,-0.767 0.331 0.356,-0.767 0.331 0.274,-0.767 0.169 0.274]
}}
appearance Appearance{material USE PIN-01 }
}
Shape { geometry IndexedFaceSet 
{ creaseAngle 0.50 coordIndex [15,12,11,-1,15,13,12,-1,15,14,13,-1,16,10,9,-1,16,11,10,-1,16,15,11,-1,8,17,16,-1,8,16,9,-1,7,17,8,-1,6,18,17,-1,6,17,7,-1,5,18,6,-1,4,19,18,-1,4,20,19,-1,4,18,5,-1,3,21,20,-1,3,22,21,-1,3,20,4,-1,23,3,2,-1,23,22,3,-1,24,23,2,-1,25,2,1,-1,25,24,2,-1,26,25,1,-1,27,1,0,-1,27,26,1,-1]
coord Coordinate { point [-0.767 0.169 0.274,-0.886 0.169 0.274,-0.906 0.169 0.268,-0.920 0.169 0.254,-0.925 0.169 0.234,-0.925 0.169 0.122,-0.928 0.169 0.095,-0.937 0.169 0.069,-0.952 0.169 0.046,-0.971 0.169 0.027,-0.994 0.169 0.012,-1.020 0.169 0.003,-1.047 0.169 0.000,-1.181 0.169 0.000,-1.181 0.169 0.083,-1.047 0.169 0.083,-1.028 0.169 0.088,-1.013 0.169 0.102,-1.008 0.169 0.122,-1.008 0.169 0.234,-1.005 0.169 0.261,-0.996 0.169 0.287,-0.981 0.169 0.310,-0.962 0.169 0.330,-0.939 0.169 0.344,-0.913 0.169 0.353,-0.886 0.169 0.356,-0.767 0.169 0.356]
}}
appearance Appearance{material USE PIN-01 }
}
Shape { geometry IndexedFaceSet 
{ creaseAngle 0.50 coordIndex [15,11,12,-1,15,12,13,-1,15,13,14,-1,16,9,10,-1,16,10,11,-1,16,11,15,-1,8,16,17,-1,8,9,16,-1,7,8,17,-1,6,17,18,-1,6,7,17,-1,5,6,18,-1,4,18,19,-1,4,19,20,-1,4,5,18,-1,3,20,21,-1,3,21,22,-1,3,4,20,-1,23,2,3,-1,23,3,22,-1,24,2,23,-1,25,1,2,-1,25,2,24,-1,26,1,25,-1,27,0,1,-1,27,1,26,-1]
coord Coordinate { point [-0.767 0.331 0.274,-0.886 0.331 0.274,-0.906 0.331 0.268,-0.920 0.331 0.254,-0.925 0.331 0.234,-0.925 0.331 0.122,-0.928 0.331 0.095,-0.937 0.331 0.069,-0.952 0.331 0.046,-0.971 0.331 0.027,-0.994 0.331 0.012,-1.020 0.331 0.003,-1.047 0.331 0.000,-1.181 0.331 0.000,-1.181 0.331 0.083,-1.047 0.331 0.083,-1.028 0.331 0.088,-1.013 0.331 0.102,-1.008 0.331 0.122,-1.008 0.331 0.234,-1.005 0.331 0.261,-0.996 0.331 0.287,-0.981 0.331 0.310,-0.962 0.331 0.330,-0.939 0.331 0.344,-0.913 0.331 0.353,-0.886 0.331 0.356,-0.767 0.331 0.356]
}}
appearance Appearance{material USE PIN-01 }
}
Shape { geometry IndexedFaceSet 
{ creaseAngle 0.50 coordIndex [14,16,15,-1,9,8,7,-1,10,1,0,-1,10,2,1,-1,10,3,2,-1,10,4,3,-1,10,5,4,-1,10,6,5,-1,10,7,6,-1,10,12,11,-1,10,13,12,-1,10,14,13,-1,10,17,16,-1,10,18,17,-1,10,19,18,-1,10,20,19,-1,10,21,20,-1,10,22,21,-1,10,23,22,-1,10,24,23,-1,10,25,24,-1,10,26,25,-1,10,0,26,-1,10,16,14,-1,10,9,7,-1]
coord Coordinate { point [-0.473 0.552 0.600,-0.500 0.555 0.600,-0.526 0.564 0.600,-0.549 0.579 0.600,-0.568 0.599 0.600,-0.581 0.623 0.600,-0.589 0.649 0.600,-0.591 0.677 0.600,-0.586 0.704 0.600,-0.575 0.729 0.600,-0.559 0.751 0.600,-0.538 0.768 0.600,-0.513 0.781 0.600,-0.487 0.787 0.600,-0.459 0.787 0.600,-0.433 0.781 0.600,-0.408 0.768 0.600,-0.387 0.751 0.600,-0.371 0.729 0.600,-0.360 0.704 0.600,-0.355 0.677 0.600,-0.357 0.649 0.600,-0.365 0.623 0.600,-0.378 0.599 0.600,-0.397 0.579 0.600,-0.420 0.564 0.600,-0.446 0.555 0.600]
}}
appearance Appearance{material USE IC-LABEL-01 }
}
Shape { geometry IndexedFaceSet 
{ creaseAngle 0.50 coordIndex [30,0,1,-1,30,29,0,-1,31,1,2,-1,31,30,1,-1,32,2,3,-1,32,31,2,-1,33,3,4,-1,33,32,3,-1,34,4,5,-1,34,33,4,-1,35,5,6,-1,35,34,5,-1,36,6,7,-1,36,35,6,-1,37,7,8,-1,37,36,7,-1,38,8,9,-1,38,37,8,-1,39,9,10,-1,39,38,9,-1,40,39,10,-1,40,10,11,-1,41,40,11,-1,41,11,12,-1,42,12,13,-1,42,41,12,-1,43,13,14,-1,43,42,13,-1,44,14,15,-1,44,15,16,-1,44,43,14,-1,45,16,17,-1,45,44,16,-1,46,45,17,-1,47,17,18,-1,47,18,19,-1,47,46,17,-1,48,47,19,-1,49,19,20,-1,49,48,19,-1,50,20,21,-1,50,49,20,-1,51,21,22,-1,51,22,23,-1,51,50,21,-1,52,51,23,-1,53,23,24,-1,53,52,23,-1,54,24,25,-1,54,53,24,-1,55,25,26,-1,55,26,27,-1,55,54,25,-1,28,55,27,-1]
coord Coordinate { point [-0.473 0.552 0.600,-0.500 0.555 0.600,-0.526 0.564 0.600,-0.549 0.579 0.600,-0.568 0.599 0.600,-0.581 0.623 0.600,-0.589 0.649 0.600,-0.591 0.677 0.600,-0.586 0.704 0.600,-0.575 0.729 0.600,-0.559 0.751 0.600,-0.538 0.768 0.600,-0.513 0.781 0.600,-0.487 0.787 0.600,-0.459 0.787 0.600,-0.433 0.781 0.600,-0.408 0.768 0.600,-0.387 0.751 0.600,-0.371 0.729 0.600,-0.360 0.704 0.600,-0.355 0.677 0.600,-0.357 0.649 0.600,-0.365 0.623 0.600,-0.378 0.599 0.600,-0.397 0.579 0.600,-0.420 0.564 0.600,-0.446 0.555 0.600,-0.473 0.552 0.600,-0.473 0.552 0.581,-0.473 0.552 0.581,-0.500 0.555 0.581,-0.526 0.564 0.581,-0.549 0.579 0.581,-0.568 0.599 0.581,-0.581 0.623 0.581,-0.589 0.649 0.581,-0.591 0.677 0.581,-0.586 0.704 0.581,-0.575 0.729 0.581,-0.559 0.751 0.581,-0.538 0.768 0.581,-0.513 0.781 0.581,-0.487 0.787 0.581,-0.459 0.787 0.581,-0.433 0.781 0.581,-0.408 0.768 0.581,-0.387 0.751 0.581,-0.371 0.729 0.581,-0.360 0.704 0.581,-0.355 0.677 0.581,-0.357 0.649 0.581,-0.365 0.623 0.581,-0.378 0.599 0.581,-0.397 0.579 0.581,-0.420 0.564 0.581,-0.446 0.555 0.581]
}}
appearance Appearance{material USE IC-LABEL-01 }
}
Shape { geometry IndexedFaceSet 
{ creaseAngle 0.50 coordIndex [3,0,1,-1,3,1,2,-1,3,4,5,-1,3,5,6,-1,3,6,7,-1,3,7,8,-1,3,8,9,-1,3,9,10,-1,3,10,11,-1,3,11,12,-1,3,12,13,-1,3,13,14,-1,3,14,15,-1,3,15,16,-1,3,16,17,-1,3,17,18,-1,3,18,19,-1,3,19,20,-1,3,20,21,-1,3,21,22,-1,3,22,23,-1,3,23,24,-1,3,24,25,-1,3,25,26,-1,3,26,0,-1]
coord Coordinate { point [-0.473 0.552 0.581,-0.500 0.555 0.581,-0.526 0.564 0.581,-0.549 0.579 0.581,-0.568 0.599 0.581,-0.581 0.623 0.581,-0.589 0.649 0.581,-0.591 0.677 0.581,-0.586 0.704 0.581,-0.575 0.729 0.581,-0.559 0.751 0.581,-0.538 0.768 0.581,-0.513 0.781 0.581,-0.487 0.787 0.581,-0.459 0.787 0.581,-0.433 0.781 0.581,-0.408 0.768 0.581,-0.387 0.751 0.581,-0.371 0.729 0.581,-0.360 0.704 0.581,-0.355 0.677 0.581,-0.357 0.649 0.581,-0.365 0.623 0.581,-0.378 0.599 0.581,-0.397 0.579 0.581,-0.420 0.564 0.581,-0.446 0.555 0.581]
}}
appearance Appearance{material USE IC-LABEL-01 }
}
